{
  "name": "",
  "css_prefix_text": "icon-",
  "css_use_suffix": false,
  "hinting": true,
  "units_per_em": 1000,
  "ascent": 850,
  "glyphs": [
    {
      "uid": "cd111cbea384e6fd32792a1ceb6a8df0",
      "css": "arrow551",
      "code": 59627,
      "src": "custom_icons",
      "selected": true,
      "svg": {
        "path": "M770.8 312.1C758.1 305.4 747.2 299.7 739.8 295.1C686.2 261.4 628.5 228.3 568.5 196.7C512.3 167 453.3 138.3 393.2 111.3C377.6 104.3 362.7 95.5 346.8 86.2C320.7 70.8 293.7 54.9 262.5 46.8C233.9 39.3 210.7 44.2 195.4 60.3C174.9 81.8 173.7 116.6 175.3 147.9C177.8 200 178.4 253.4 179.1 305C179.3 329.8 179.6 354.6 180.1 379.4C181 425 181.5 470.6 182 516.3C183.3 634.3 184.6 756.4 193.5 876.7C193.8 880.7 194.6 884.6 196 888.7C199.7 912.2 217.6 928.9 239.5 928.9C245.4 928.9 251.4 927.7 257.3 925.4C372.6 879.8 489.1 812.5 613.5 719.6C666.4 680 720.5 636.3 774.2 589.7C784.1 581.2 797.3 571.9 811.2 562.1C848.4 536 890.6 506.4 904.2 466.9C909.4 451.6 911.7 427.6 892.8 400.2C866.9 362.7 811.4 333.5 770.8 312.1Z",
        "width": 1000
      },
      "search": [
        "arrow551"
      ]
    },
    {
      "uid": "11d7bba83918ffc6b0ddf26b977e259e",
      "css": "flaticon_32341",
      "code": 59628,
      "src": "custom_icons",
      "selected": true,
      "svg": {
        "path": "M146.3 853.8C341.3 1048.8 658.6 1048.8 853.6 853.8S1048.6 341.4 853.6 146.4S341.2-48.6 146.3 146.4S-48.8 658.7 146.3 853.8ZM185 185.2C358.7 11.6 641.2 11.6 814.8 185.2C988.4 358.8 988.4 641.3 814.8 815C641.2 988.6 358.6 988.6 185 815C11.4 641.3 11.4 358.8 185 185.2Z",
        "width": 1000
      },
      "search": [
        "flaticon_32341"
      ]
    },
    {
      "uid": "d1ceade4408fd1e40cb99c81016477f2",
      "css": "sun42",
      "code": 59629,
      "src": "custom_icons",
      "selected": true,
      "svg": {
        "path": "M891.1 222.8C808.5 116.3 694.5 59.6 569.4 55.4 565.1 53.4 560.5 51.7 554.8 50.9 248 7.6-33.8 282.6 7.6 592.9 41.1 843.6 284.2 990.3 522.9 951.7 734 917.7 952.1 766.6 990.2 544.4 1010.6 424.8 963.1 315.6 891.1 222.8ZM887.8 550.1C852.9 705.5 692.9 807.5 549.1 845.5 377.3 890.9 213.2 824.5 131.7 666 19.1 447 210 184.5 433.6 148.2 444.5 159.5 460.6 166 480.1 161.8 698.3 115.1 939.5 320.3 887.8 550.1Z",
        "width": 1000
      },
      "search": [
        "sun42"
      ]
    },
    {
      "uid": "3ae32a190411741b27dc83ae24159f0c",
      "css": "drop8",
      "code": 59630,
      "src": "custom_icons",
      "selected": true,
      "svg": {
        "path": "M777.1 748.6C764.6 748.6 754.4 738.5 754.4 726S764.6 703.3 777.1 703.3C818.9 703.3 852.9 669.3 852.9 627.5 852.9 615 863.1 604.9 875.6 604.9S898.2 615 898.2 627.5C898.2 694.3 843.9 748.6 777.1 748.6ZM777.1 850.4C747 850.4 717.8 844.5 690.3 832.9 678.8 828 673.4 814.7 678.3 803.2 683.1 791.7 696.4 786.3 707.9 791.2 729.8 800.5 753.1 805.2 777.1 805.2 875 805.2 954.8 725.5 954.8 627.5 954.8 538.3 840.2 324.2 777.1 216.4 758 249.2 727.2 303.4 696.7 363.1 691 374.3 677.3 378.7 666.2 373 655.1 367.3 650.7 353.7 656.4 342.5 706.4 244.7 757.3 161.3 757.8 160.4 761.9 153.7 769.2 149.6 777.1 149.6S792.3 153.7 796.4 160.4C804.7 174 1000 495.2 1000 627.5 1000 750.4 900 850.4 777.1 850.4ZM500 748.6C487.5 748.6 477.4 738.5 477.4 726S487.5 703.3 500 703.3C541.8 703.3 575.9 669.3 575.9 627.5 575.9 615 586 604.9 598.5 604.9S621.1 615 621.1 627.5C621.1 694.3 566.8 748.6 500 748.6ZM500 850.4C468.5 850.4 438 844 409.5 831.3 398.1 826.2 392.9 812.8 398 801.4 403.1 790 416.5 784.8 427.9 789.9 450.6 800 474.9 805.2 500 805.2 598 805.2 677.7 725.5 677.7 627.5 677.7 538.3 563.1 324.2 500.1 216.4 480.9 249.2 450.1 303.4 419.6 363.1 413.9 374.3 400.3 378.7 389.1 373 378 367.3 373.6 353.7 379.3 342.5 429.3 244.7 480.2 161.3 480.7 160.4 484.8 153.7 492.1 149.6 500 149.6S515.2 153.7 519.3 160.4C527.6 174 722.9 495.2 722.9 627.5 722.9 750.4 622.9 850.4 500 850.4ZM222.9 850.4C100 850.4 0 750.4 0 627.5 0 495.2 195.3 174 203.6 160.4 207.7 153.7 215 149.6 222.9 149.6S238.1 153.7 242.2 160.4C250.5 174 445.9 495.2 445.9 627.5 445.9 750.4 345.9 850.4 222.9 850.4ZM222.9 216.4C159.9 324.1 45.2 538.3 45.2 627.5 45.2 725.5 125 805.2 222.9 805.2 320.9 805.2 400.6 725.5 400.6 627.5 400.6 538.3 286 324.1 222.9 216.4ZM222.9 748.6C210.4 748.6 200.3 738.5 200.3 726S210.4 703.3 222.9 703.3C264.8 703.3 298.8 669.3 298.8 627.5 298.8 615 308.9 604.9 321.4 604.9S344.1 615 344.1 627.5C344.1 694.3 289.7 748.6 222.9 748.6Z",
        "width": 1000
      },
      "search": [
        "drop8"
      ]
    },
    {
      "uid": "c24792749903509b312c42d24b14c92c",
      "css": "ecologism",
      "code": 59631,
      "src": "custom_icons",
      "selected": true,
      "svg": {
        "path": "M858.4 136L150.5 137.3 0 744.1V864H1000V741.5L858.4 136ZM888.2 496.6H654.1L638 333.4H853.3L888.2 496.6ZM818.3 170.1L848.9 313H636L621.8 170.1H818.3ZM412.7 170.1H601.3L615.4 313H399.2L412.7 170.1ZM617.4 333.4L633.6 496.6H381.9L397.2 333.4H617.4ZM202.1 170.1H392.1L378.7 313H171.5L202.1 170.1ZM167.1 333.4H376.8L361.4 496.6H132.2L167.1 333.4ZM340.2 721.1H84L127.8 517H359.4L340.2 721.1ZM360.7 721.1L380 517H635.6L655.8 721.1H360.7ZM676.4 721.1L656.2 517H892.6L936.4 721.1H676.4ZM317.7 293C314.9 296 298.1 285.2 280.2 268.7 262.3 252.2 250 236.4 252.8 233.4 255.6 230.4 272.4 241.2 290.3 257.7 308.3 274.1 320.5 289.9 317.7 293ZM244.3 193.5C247.1 190.4 263.8 201.3 281.8 217.8 299.7 234.2 311.9 250 309.1 253.1 306.3 256.1 289.5 245.2 271.6 228.8 253.7 212.3 241.5 196.5 244.3 193.5ZM542.2 293C539.4 296 522.6 285.2 504.7 268.7 486.8 252.2 474.5 236.4 477.3 233.4 480.1 230.3 496.9 241.2 514.8 257.7 532.8 274.1 545 289.9 542.2 293ZM468.7 193.5C471.5 190.4 488.3 201.3 506.3 217.7 524.2 234.2 536.4 250 533.6 253 530.8 256.1 514 245.2 496.1 228.8S466 196.5 468.7 193.5ZM766.7 293C763.9 296 747.1 285.1 729.2 268.7 711.3 252.2 699 236.4 701.8 233.4 704.6 230.3 721.4 241.2 739.3 257.6 757.2 274.1 769.5 289.9 766.7 293ZM693.2 193.5C696 190.4 712.8 201.3 730.7 217.7 748.7 234.2 760.9 250 758.1 253 755.3 256.1 738.5 245.2 720.6 228.7 702.7 212.3 690.4 196.5 693.2 193.5ZM311.4 463.3C308.2 466.8 289.1 454.4 268.6 435.6 248.2 416.8 234.2 398.8 237.4 395.3 240.6 391.8 259.7 404.2 280.2 423 300.6 441.8 314.6 459.8 311.4 463.3ZM227.6 349.7C230.8 346.3 250 358.7 270.4 377.5 290.9 396.2 304.9 414.3 301.7 417.8 298.5 421.2 279.3 408.8 258.9 390.1 238.4 371.3 224.4 353.2 227.6 349.7ZM547.4 463.3C544.2 466.8 525 454.3 504.6 435.6 484.1 416.8 470.1 398.7 473.3 395.2 476.5 391.8 495.7 404.2 516.1 423S550.6 459.8 547.4 463.3ZM463.6 349.7C466.7 346.3 485.9 358.7 506.4 377.5 526.8 396.2 540.8 414.3 537.6 417.8 534.5 421.2 515.3 408.8 494.8 390.1 474.4 371.3 460.4 353.2 463.6 349.7ZM803.7 463.3C800.5 466.8 781.4 454.4 760.9 435.6 740.4 416.8 726.5 398.8 729.7 395.3 732.8 391.8 752 404.2 772.5 423 792.9 441.8 806.9 459.9 803.7 463.3ZM719.9 349.7C723.1 346.3 742.3 358.7 762.7 377.5 783.2 396.2 797.2 414.3 794 417.8 790.8 421.2 771.6 408.8 751.2 390.1 730.7 371.3 716.7 353.2 719.9 349.7ZM289.7 679.1C285.9 683.3 262.8 668.3 238.1 645.7 213.4 623 196.6 601.2 200.4 597 204.3 592.8 227.4 607.8 252.1 630.4 276.7 653.1 293.6 674.9 289.7 679.1ZM188.6 542C192.4 537.9 215.6 552.8 240.2 575.5 264.9 598.1 281.8 619.9 277.9 624.1 274.1 628.3 251 613.3 226.3 590.7 201.6 568 184.7 546.2 188.6 542ZM553.9 679.1C550 683.3 526.9 668.3 502.3 645.7 477.6 623 460.7 601.2 464.6 597 468.4 592.9 491.5 607.8 516.2 630.4 540.9 653.1 557.7 674.9 553.9 679.1ZM452.7 542.1C456.6 537.9 479.7 552.8 504.4 575.5S545.9 619.9 542.1 624.1 515.1 613.3 490.4 590.7C465.8 568 448.9 546.3 452.7 542.1ZM842.7 679.1C838.8 683.3 815.7 668.3 791 645.7 766.4 623 749.5 601.2 753.4 597S780.3 607.8 805 630.4C829.7 653.1 846.5 674.9 842.7 679.1ZM741.5 542C745.4 537.9 768.5 552.8 793.2 575.5 817.8 598.1 834.7 619.9 830.8 624.1S803.9 613.3 779.2 590.7C754.5 568 737.7 546.2 741.5 542Z",
        "width": 1000
      },
      "search": [
        "ecologism"
      ]
    },
    {
      "uid": "6636c15e764ef918cf6b3c2ef126eef9",
      "css": "recycle12",
      "code": 59632,
      "src": "custom_icons",
      "selected": true,
      "svg": {
        "path": "M963.9 618.7L864.8 446.2C874.2 445.2 882.3 438.3 884.3 428.5 887 416.3 879.2 404.3 867 401.7L695.4 364.8C684 362.3 672.6 368.9 669.1 380L615.2 547C611.4 558.9 617.9 571.7 629.8 575.5 632.1 576.2 634.4 576.6 636.7 576.6 643.7 576.6 650.3 573.4 654.5 567.9L733.5 705.2H565C552.5 705.2 542.4 715.4 542.4 727.9S552.5 750.5 565 750.5H772.6C780.7 750.5 788.1 746.2 792.2 739.2 796.2 732.2 796.2 723.6 792.2 716.6L674.2 511.4 705.9 413.3 806.1 434.9 924.7 641.2C960.9 704.1 964.4 769.8 934.5 821.6 904.6 873.3 845.8 902.9 773.3 902.9H565C552.5 902.9 542.4 913.1 542.4 925.6S552.5 948.2 565 948.2H773.3C862.4 948.2 935.4 910.3 973.7 844.2 1011.9 778.2 1008.4 695.9 963.9 618.7ZM579.7 811.5L461.9 681.4C453.5 672.1 439.2 671.4 430 679.8 422.7 686.4 420.7 696.6 424.3 705.2H266.5L351.8 556.8C358 546 354.3 532.2 343.5 526S318.8 523.5 312.6 534.3L207.8 716.6C203.8 723.6 203.8 732.2 207.8 739.2 211.9 746.2 219.3 750.5 227.4 750.5H463.4L532.4 826.7 463.4 902.9H226.7C154.2 902.9 95.4 873.3 65.5 821.6 35.6 769.9 39.1 704.1 75.3 641.2L180.6 458C186.8 447.2 183.1 433.3 172.3 427.1 161.4 420.9 147.6 424.6 141.4 435.5L36.1 618.7C-8.4 695.9-11.9 778.2 26.3 844.2 64.6 910.3 137.6 948.2 226.7 948.2H424.3C420.7 956.8 422.7 967.1 430 973.7 434.3 977.6 439.7 979.5 445.1 979.5 451.3 979.5 457.4 977 461.9 972.1L579.7 841.9C587.5 833.3 587.5 820.2 579.7 811.5ZM226.1 501.3C229.2 510.8 238 516.9 247.6 516.9 249.2 516.9 250.8 516.8 252.4 516.4L424 479.6C436.2 476.9 444 464.9 441.4 452.7 439.3 443 431.2 436.1 421.8 435L500 299 584.3 445.8C590.6 456.6 604.4 460.3 615.2 454.1 626.1 447.9 629.8 434 623.6 423.2L519.6 242.4C515.6 235.3 508.1 231 500 231S484.4 235.3 480.4 242.4L363.1 446.4 262.9 467.9 231.3 369.9 349.1 164.8C385.3 101.8 440.3 65.7 500 65.7S614.7 101.8 650.9 164.8L755.5 346.9C761.8 357.8 775.6 361.5 786.4 355.3 797.3 349 801 335.2 794.8 324.4L690.1 142.3C645.6 64.9 576.3 20.5 500 20.5S354.4 64.9 309.9 142.3L211.6 313.3C205.9 306.1 196.1 302.7 186.8 305.7 174.9 309.6 168.4 322.3 172.2 334.2L226.1 501.3Z",
        "width": 1000
      },
      "search": [
        "recycle12"
      ]
    },
    {
      "uid": "c5fc9d8eb6c93ebd1d982a3d024bea8b",
      "css": "sunny39",
      "code": 59633,
      "src": "custom_icons",
      "selected": true,
      "svg": {
        "path": "M499.3 216.5C343.4 216.5 215.8 344.1 215.8 500.1S343.4 783.6 499.3 783.6 782.9 655.9 782.9 500.1 656.6 216.5 499.3 216.5ZM499.3 735.9C369.1 735.9 263.5 630.1 263.5 500.1S369.3 264.2 499.3 264.2 735.2 369.9 735.2 500.1 629.6 735.9 499.3 735.9ZM476.2 104.3V23.2C476.2 10.3 486.5 0 499.3 0S522.5 10.3 522.5 23.2V104.3C522.5 117.2 512.2 127.5 499.3 127.5 486.5 128.8 476.2 117.2 476.2 104.3ZM241.6 99.2C235.1 87.6 238.9 73.4 250.6 67 262.2 60.5 276.4 64.3 282.8 76L322.8 145.6C329.3 157.2 325.5 171.4 313.8 177.8 309.9 180.5 306 180.5 302.2 180.5 294.4 180.5 285.5 176.6 281.5 168.9L241.6 99.2ZM178.4 314.4C174.6 322.1 165.5 325.9 157.8 325.9 154 325.9 150 324.6 146.2 323.3L76.6 283.3C65 276.9 61.1 262.7 67.6 251.1S88.2 235.6 99.8 242L169.4 282C180.9 288.6 184.9 302.8 178.4 314.4ZM104.9 523.2H23.8C10.9 523.2 0.6 513 0.6 500.1S10.9 476.9 23.8 476.9H104.9C117.8 476.9 128.1 487.2 128.1 500.1 128.2 512.9 117.8 523.2 104.9 523.2ZM178.4 685.6C184.9 697.2 181 711.4 169.4 717.9L99.8 757.8C96 760.5 92 760.5 88.2 760.5 80.4 760.5 71.5 756.7 67.6 748.9 61.1 737.3 64.9 723.1 76.6 716.7L146.2 676.7C156.5 670.1 172 674.1 178.4 685.6ZM322.7 854.5L282.8 924.1C279 931.9 270 935.7 262.2 935.7 258.4 935.7 254.4 934.4 250.6 933 239.1 926.6 235.1 912.4 241.6 900.8L281.5 831.2C288 819.7 302.2 815.7 313.8 822.2 325.3 828.7 329.2 842.8 322.7 854.5ZM523.8 895.7V976.8C523.8 989.7 513.5 1000 500.7 1000 487.8 1000 477.5 989.7 477.5 976.8V895.7C477.5 882.8 487.8 872.5 500.7 872.5 513.5 871.2 523.8 882.8 523.8 895.7ZM758.4 900.8C764.9 912.4 761.1 926.6 749.4 933 745.6 934.4 741.6 935.7 737.8 935.7 730 935.7 721.1 931.9 717.2 924.1L677.2 854.5C670.7 842.9 674.5 828.7 686.2 822.3 697.8 815.9 712 819.7 718.5 831.4L758.4 900.8ZM932.5 750.1C928.6 757.8 919.6 761.7 911.8 761.7 908 761.7 904 760.4 900.2 759L830.6 719.1C819.1 712.6 815.1 698.4 821.6 686.8 828 675.3 842.2 671.3 853.8 677.8L923.4 717.7C935 724.3 938.9 738.5 932.5 750.1ZM999.4 500.1C999.4 513 989.1 523.2 976.2 523.2H895.1C882.2 523.2 871.9 513 871.9 500.1 871.9 487.2 882.2 476.9 895.1 476.9H976.2C989.1 475.5 999.4 487.2 999.4 500.1ZM821.6 314.4C815.1 302.8 819 288.6 830.6 282.1L900.2 242.2C911.8 235.7 926 239.5 932.5 251.2 938.9 262.8 935.1 277 923.4 283.4L853.8 323.4C850 326.1 846 326.1 842.2 326.1 834.5 326.1 826.7 322.1 821.6 314.4ZM677.2 145.6L717.2 76C723.6 64.4 737.8 60.5 749.4 67S764.9 87.6 758.4 99.2L718.5 168.8C714.6 176.5 705.6 180.3 697.8 180.3 694 180.3 690.1 179 686.2 177.7 674.7 171.4 670.7 157.2 677.2 145.6Z",
        "width": 1000
      },
      "search": [
        "sunny39"
      ]
    },
    {
      "uid": "91c8adbd635f7badde55152467f04a4e",
      "css": "tick7",
      "code": 59634,
      "src": "custom_icons",
      "selected": true,
      "svg": {
        "path": "M295 405L225 475 450 700 950 200 880 130 450 560 295 405ZM900 500C900 720 720 900 500 900S100 720 100 500 280 100 500 100C540 100 575 105 610 115L690 35C630 15 565 0 500 0 225 0 0 225 0 500S225 1000 500 1000 1000 775 1000 500H900Z",
        "width": 1000
      },
      "search": [
        "tick7"
      ]
    },
    {
      "uid": "26b3cd21763f2c65b43d847487e6927d",
      "css": "wind14",
      "code": 59635,
      "src": "custom_icons",
      "selected": true,
      "svg": {
        "path": "M865.2 502.3C859 496.7 852.7 491.6 846.4 486.7 833.5 476.9 820.4 468.2 806.9 460.4 780.1 444.8 752 432.3 723.2 422.3 694.3 412.4 664.6 404.9 633.7 400.6 618.3 398.4 602.6 397.2 586.6 396.9 580.9 396.9 575.2 397 569.5 397.2 567.9 367.3 546.4 342.6 517.9 336.4 520 331.1 521.9 325.9 523.6 320.6 528.6 305.3 532.6 290 535.6 274.8 541.7 244.3 544.2 213.7 544.3 183.2 544.3 152.6 541.7 122.1 535.7 91.6 532.7 76.3 528.8 61 523.8 45.8 521.1 38.1 518.4 30.5 515.1 22.9 511.9 15.3 508.4 7.6 503.9 0 499.4 7.6 495.8 15.3 492.6 22.9 489.4 30.5 486.6 38.2 484 45.8 479 61.1 475 76.3 472 91.6 466 122.1 463.5 152.7 463.5 183.2 463.5 213.7 466.2 244.3 472.2 274.8 475.1 290.1 479.1 305.4 484.1 320.6 485.9 325.9 487.9 331.2 489.9 336.4 461.4 342.6 439.7 367.4 438.3 397.5 438.1 397.5 438 397.5 437.8 397.5 429.5 396.9 421.4 396.8 413.3 396.9 397.3 397.1 381.5 398.3 366.2 400.5 335.3 404.8 305.6 412.4 276.8 422.3 247.9 432.4 219.9 444.8 193.1 460.5 179.6 468.4 166.5 477.1 153.7 486.8 147.3 491.8 140.9 496.8 134.8 502.3 128.6 507.9 122.6 513.7 116.8 520.4 125.5 522.1 133.9 523 142.2 523.5 150.4 524.1 158.5 524.2 166.6 524.1 182.6 523.8 198.4 522.6 213.7 520.5 244.6 516.2 274.3 508.6 303.2 498.7 332 488.8 360.1 476.3 386.9 460.7 400.4 452.9 413.6 444.1 426.3 434.4 431.5 430.4 436.7 426.2 441.7 421.8 447.6 439.1 460.5 453.1 477 460.6L426.9 1000H581L528.9 461.5C544.7 455 557.4 442.5 564.2 426.8 567.4 429.3 570.5 431.8 573.7 434.3 586.5 444 599.6 452.8 613.1 460.6 640 476.2 668 488.6 696.8 498.7 725.7 508.7 755.3 516.3 786.2 520.5 801.6 522.8 817.3 524 833.4 524.2 841.5 524.3 849.6 524.2 857.9 523.6 866.1 523.1 874.5 522.2 883.2 520.4 877.4 513.6 871.4 507.8 865.2 502.3ZM503.9 426C489.9 426 478.6 414.6 478.6 400.6 478.6 386.7 489.9 375.3 503.9 375.3 517.9 375.3 529.3 386.7 529.3 400.6 529.2 414.6 517.9 426 503.9 426Z",
        "width": 1000
      },
      "search": [
        "wind14"
      ]
    },
    {
      "uid": "beda04638225cc843fe983d9559c5cb5",
      "css": "wind15",
      "code": 59636,
      "src": "custom_icons",
      "selected": true,
      "svg": {
        "path": "M567.7 430.5C570.6 432.9 573.6 435.3 576.6 437.6 588.8 446.8 601.2 455.2 614 462.5 639.5 477.4 666 489.2 693.4 498.8 720.9 508.2 749 515.4 778.3 519.5 792.9 521.5 807.8 522.8 823.1 523 830.7 523 838.4 522.9 846.2 522.4 854.1 521.9 862 521 870.3 519.3 864.8 513 859.1 507.4 853.2 502.2 847.4 496.9 841.4 492 835.3 487.4 823.2 478.1 810.7 469.8 798 462.4 772.5 447.6 745.9 435.8 718.5 426.3 691.1 416.9 662.9 409.7 633.7 405.7 619 403.6 604.1 402.4 588.9 402.2 583.5 402.2 578.1 402.2 572.6 402.4 571.1 374.1 550.7 350.7 523.7 344.8 525.7 339.7 527.5 334.7 529.2 329.8 533.9 315.3 537.7 300.8 540.5 286.3 546.3 257.3 548.7 228.3 548.8 199.4 548.8 170.4 546.3 141.4 540.6 112.4 537.8 98 534.1 83.5 529.3 69 526.8 61.7 524.2 54.5 521.1 47.3 518 40 514.7 32.8 510.4 25.5 506.1 32.7 502.8 40 499.7 47.3 496.6 54.5 494.1 61.7 491.6 69 486.8 83.4 483 97.9 480.2 112.4 474.5 141.4 472 170.4 472.1 199.4 472.1 228.3 474.6 257.3 480.4 286.3 483.2 300.8 486.9 315.3 491.7 329.7 493.4 334.7 495.2 339.7 497.1 344.7 470.1 350.6 449.5 374.2 448.2 402.7 448 402.7 447.9 402.7 447.7 402.7 439.9 402.1 432.2 402 424.5 402.1 409.3 402.3 394.3 403.5 379.7 405.6 350.4 409.7 322.3 416.8 294.9 426.3 267.5 435.8 241 447.6 215.5 462.5 202.6 469.9 190.2 478.2 178.1 487.4 172 492.1 166 496.9 160.2 502.2 154.3 507.5 148.6 513 143.1 519.4 151.4 521 159.3 521.8 167.2 522.3 175 522.8 182.7 523 190.3 522.9 205.6 522.6 220.5 521.4 235.1 519.3 264.4 515.3 292.6 508.2 320 498.8 347.3 489.3 373.9 477.5 399.5 462.6 412.3 455.2 424.7 446.9 436.8 437.7 441.7 433.9 446.6 429.9 451.4 425.7 457 442.1 469.2 455.5 484.9 462.5L437.3 974.5H583.5L534 463.4C549.1 457.2 561.2 445.3 567.7 430.5ZM510.4 429.7C497.2 429.7 486.3 418.9 486.3 405.7 486.3 392.4 497.2 381.7 510.4 381.7 523.7 381.7 534.4 392.4 534.4 405.7 534.4 418.9 523.7 429.7 510.4 429.7ZM388.6 672.8C381.7 667.6 374.8 663 367.6 658.8 353.3 650.5 338.4 643.9 323 638.6 307.6 633.3 291.8 629.3 275.3 627.1 267.1 625.9 258.7 625.2 250.2 625.1 247.2 625.1 244.2 625.1 241.1 625.2 240.3 609.3 228.8 596.2 213.6 592.8 214.7 590 215.8 587.2 216.7 584.4 219.4 576.3 221.5 568.2 223.1 560 224.6 552.5 225.6 544.9 226.3 537.4 213.5 539.1 200.2 540.2 186.5 540.6 187.2 547 188 553.5 189.3 560 190.9 568.2 193 576.3 195.6 584.4 196.5 587.2 197.6 590 198.7 592.8 183.5 596.2 172 609.4 171.2 625.4 171.1 625.4 171 625.4 171 625.3 166.5 625 162.2 625 157.9 625 149.4 625.1 141 625.8 132.8 626.9 116.4 629.2 100.6 633.2 85.2 638.6 69.8 643.9 54.9 650.5 40.6 658.9 33.4 663 26.4 667.7 19.6 672.9 16.2 675.5 12.9 678.2 9.5 681.2 6.2 684.1 3.1 687.2 0 690.8 4.6 691.7 9 692.2 13.5 692.5 17.9 692.7 22.2 692.8 26.4 692.8 35 692.6 43.4 692 51.6 690.8 68.1 688.5 83.9 684.5 99.2 679.2 114.6 673.9 129.6 667.3 143.8 659 151.1 654.8 158 650.1 164.8 645 167.6 642.8 170.3 640.6 173 638.3 176.1 647.5 183 655 191.8 658.9L165.2 946.3H247.2L219.4 659.4C227.9 655.9 234.7 649.3 238.3 640.9 240 642.3 241.7 643.6 243.3 644.9 250.1 650.1 257.2 654.8 264.3 658.9 278.6 667.3 293.5 673.9 308.9 679.3 324.3 684.6 340.1 688.6 356.5 690.9 364.7 692 373.1 692.7 381.6 692.9 386 692.9 390.3 692.9 394.7 692.5 399.1 692.2 403.5 691.8 408.2 690.8 405.1 687.3 401.8 684.1 398.6 681.2 395.3 678.2 392 675.5 388.6 672.8ZM206.2 640.5C198.7 640.5 192.7 634.5 192.7 627 192.7 619.6 198.7 613.5 206.2 613.5 213.6 613.5 219.7 619.6 219.7 627 219.7 634.4 213.6 640.5 206.2 640.5ZM217.6 441.3C217.3 440.2 217.2 439.1 216.8 438 215.4 433.9 213.9 429.9 212.1 425.8 210.4 421.7 208.6 417.7 206.2 413.6 203.8 417.7 201.9 421.7 200.2 425.8 198.4 429.8 197 433.9 195.6 438 193.6 444.2 192.2 450.5 190.7 456.7 194.1 454.6 197.3 452 200.6 450.1 206.1 446.9 212 444.2 217.6 441.3ZM990.4 681.1C987.2 678.2 983.8 675.5 980.4 672.9 973.6 667.7 966.6 663 959.5 658.9 945.1 650.5 930.2 643.9 914.8 638.6S883.6 629.3 867.2 627.1C859 625.9 850.6 625.2 842.1 625.1 839 625.1 836 625.1 832.9 625.2 832.1 609.3 820.7 596.2 805.4 592.8 806.6 590 807.6 587.2 808.5 584.4 811.2 576.3 813.3 568.2 814.9 560 816.2 553.6 817 547.2 817.7 540.8H816C803 540.6 790.4 539.4 777.9 537.8 778.7 545.3 779.7 552.7 781.1 560 782.7 568.2 784.8 576.3 787.5 584.4 788.4 587.2 789.5 590 790.6 592.8 775.4 596.2 763.9 609.4 763.1 625.4 763 625.4 762.9 625.4 762.8 625.3 758.4 625 754.1 625 749.8 625 741.2 625.1 732.8 625.8 724.7 627 708.3 629.2 692.4 633.3 677 638.6 661.7 643.9 646.8 650.5 632.5 658.9 625.3 663 618.3 667.7 611.5 672.9 608.1 675.5 604.7 678.2 601.4 681.2 598.1 684.1 594.9 687.2 591.9 690.8 596.5 691.7 600.9 692.2 605.4 692.5 609.7 692.8 614.1 692.8 618.3 692.8 626.9 692.6 635.3 692 643.5 690.8 659.9 688.5 675.7 684.5 691.1 679.2 706.5 673.9 721.4 667.3 735.7 659 742.9 654.9 749.9 650.1 756.7 645 759.5 642.9 762.2 640.6 764.8 638.3 768 647.5 774.9 655 783.7 658.9L756.9 946.3H839.1L811.3 659.4C819.7 655.9 826.5 649.2 830.2 640.9 831.8 642.3 833.5 643.6 835.2 644.9 842 650.1 849 654.8 856.1 658.9 870.4 667.3 885.3 673.9 900.7 679.3 916.1 684.6 931.9 688.6 948.4 690.8 956.6 692.1 964.9 692.7 973.5 692.8 977.8 692.8 982.1 692.8 986.5 692.5 990.9 692.2 995.3 691.7 1000 690.8 996.9 687.2 993.7 684.1 990.4 681.1ZM798 640.5C790.6 640.5 784.5 634.5 784.5 627 784.5 619.6 790.6 613.5 798 613.5 805.4 613.5 811.5 619.6 811.5 627 811.5 634.4 805.4 640.5 798 640.5ZM814.3 460C812.8 452.6 811 445.3 808.6 438 807.2 433.9 805.8 429.9 804 425.8 802.2 421.7 800.4 417.7 798 413.6 795.5 417.7 793.7 421.7 792 425.8 790.2 429.8 788.7 433.9 787.4 438 786.8 439.7 786.5 441.4 786 443.1 790.4 445.5 795.1 447.5 799.4 450 804.5 453 809.3 456.7 814.3 460Z",
        "width": 1000
      },
      "search": [
        "wind15"
      ]
    },
    {
      "uid": "e2bef0b9313236e2d356b522eedf8311",
      "css": "wind19",
      "code": 59637,
      "src": "custom_icons",
      "selected": true,
      "svg": {
        "path": "M529.7 1000L505.2 465.5H478.7L457.8 1000H529.7ZM509.1 310.3C522 310.3 532.4 296.7 532.4 283.9L509.7 28.1C509.7 15.3 509.6 0 496.7 0H493.6C480.8 0 479.7 15.3 479.7 28.1L458 283.9C458 296.7 468.4 310.3 481.2 310.3L509.1 310.3 509.1 310.3ZM784.2 580.6C795 587.5 807.9 595.6 814.8 584.8L816.5 582.2C823.4 571.4 811.1 562.3 800.3 555.4L596.4 399.4C585.6 392.5 568.5 393.9 561.6 404.8L546.6 428.3C539.7 439.1 545.6 455.2 556.4 462.1L784.2 580.6ZM215.8 580.6L443.6 462.1C454.4 455.1 460.3 439 453.4 428.2L438.4 404.7C431.5 393.9 414.4 392.5 403.6 399.4L199.7 555.3C188.9 562.3 176.6 571.4 183.5 582.2L185.2 584.8C192.1 595.6 205 587.5 215.8 580.6ZM493.8 347.9C513.5 347.9 529.5 363.9 529.5 383.6S513.5 419.4 493.8 419.4 458 403.4 458 383.6 474 347.9 493.8 347.9Z",
        "width": 1000
      },
      "search": [
        "wind19"
      ]
    },
    {
      "uid": "e83c39d48cd76835c264b41fa9bd32ad",
      "css": "drop8-1",
      "code": 59638,
      "src": "custom_icons",
      "selected": true,
      "svg": {
        "path": "M777.1 748.6C764.6 748.6 754.4 738.5 754.4 726S764.6 703.3 777.1 703.3C818.9 703.3 852.9 669.3 852.9 627.5 852.9 615 863.1 604.9 875.6 604.9S898.2 615 898.2 627.5C898.2 694.3 843.9 748.6 777.1 748.6ZM777.1 850.4C747 850.4 717.8 844.5 690.3 832.9 678.8 828 673.4 814.7 678.3 803.2 683.1 791.7 696.4 786.3 707.9 791.2 729.8 800.5 753.1 805.2 777.1 805.2 875 805.2 954.8 725.5 954.8 627.5 954.8 538.3 840.2 324.2 777.1 216.4 758 249.2 727.2 303.4 696.7 363.1 691 374.3 677.3 378.7 666.2 373 655.1 367.3 650.7 353.7 656.4 342.5 706.4 244.7 757.3 161.3 757.8 160.4 761.9 153.7 769.2 149.6 777.1 149.6S792.3 153.7 796.4 160.4C804.7 174 1000 495.2 1000 627.5 1000 750.4 900 850.4 777.1 850.4ZM500 748.6C487.5 748.6 477.4 738.5 477.4 726S487.5 703.3 500 703.3C541.8 703.3 575.9 669.3 575.9 627.5 575.9 615 586 604.9 598.5 604.9S621.1 615 621.1 627.5C621.1 694.3 566.8 748.6 500 748.6ZM500 850.4C468.5 850.4 438 844 409.5 831.3 398.1 826.2 392.9 812.8 398 801.4 403.1 790 416.5 784.8 427.9 789.9 450.6 800 474.9 805.2 500 805.2 598 805.2 677.7 725.5 677.7 627.5 677.7 538.3 563.1 324.2 500.1 216.4 480.9 249.2 450.1 303.4 419.6 363.1 413.9 374.3 400.3 378.7 389.1 373 378 367.3 373.6 353.7 379.3 342.5 429.3 244.7 480.2 161.3 480.7 160.4 484.8 153.7 492.1 149.6 500 149.6S515.2 153.7 519.3 160.4C527.6 174 722.9 495.2 722.9 627.5 722.9 750.4 622.9 850.4 500 850.4ZM222.9 850.4C100 850.4 0 750.4 0 627.5 0 495.2 195.3 174 203.6 160.4 207.7 153.7 215 149.6 222.9 149.6S238.1 153.7 242.2 160.4C250.5 174 445.9 495.2 445.9 627.5 445.9 750.4 345.9 850.4 222.9 850.4ZM222.9 216.4C159.9 324.1 45.2 538.3 45.2 627.5 45.2 725.5 125 805.2 222.9 805.2 320.9 805.2 400.6 725.5 400.6 627.5 400.6 538.3 286 324.1 222.9 216.4ZM222.9 748.6C210.4 748.6 200.3 738.5 200.3 726S210.4 703.3 222.9 703.3C264.8 703.3 298.8 669.3 298.8 627.5 298.8 615 308.9 604.9 321.4 604.9S344.1 615 344.1 627.5C344.1 694.3 289.7 748.6 222.9 748.6Z",
        "width": 1000
      },
      "search": [
        "drop8"
      ]
    },
    {
      "uid": "7c56c60a54d8e8723fb968d03da99724",
      "css": "podium",
      "code": 59641,
      "src": "custom_icons",
      "selected": true,
      "svg": {
        "path": "M687.5 749.5H625V280.8H375V749.5H312.5V218.3H687.5ZM1000 968.3H0V405.8H250V468.3H62.5V905.8H937.5V593.3H750V530.8H1000ZM468.8 30.8H531.3V155.8H468.8V30.8ZM62.5 218.3H125V343.3H62.5V218.3ZM187.5 218.3H250V343.3H187.5V218.3ZM750 343.3H812.5V468.3H750V343.3ZM843.8 343.3H906.3V468.3H843.8V343.3ZM937.5 343.3H1000V468.3H937.5V343.3Z",
        "width": 1000
      },
      "search": [
        "podium"
      ]
    },
    {
      "uid": "87ac87fbf969491215a6254099659deb",
      "css": "plaine",
      "code": 59642,
      "src": "custom_icons",
      "selected": true,
      "svg": {
        "path": "M671.2 993L406.3 754.4V832.3L416.3 822.5 459.9 867.3 343.8 980.2V614L641.3 882 888.4 113.3 120.2 387.6 285.1 548.3 603.3 307.3 641.1 357.2 279.9 630.6 4.8 362.4 986.6 11.8Z",
        "width": 1000
      },
      "search": [
        "plaine"
      ]
    },
    {
      "uid": "aec5850e0fa9a1026930e6edd792d837",
      "css": "megaphone",
      "code": 59643,
      "src": "custom_icons",
      "selected": true,
      "svg": {
        "path": "M468.8 625H312.5V562.5H406.3V312.5H250V250H468.8ZM1000 825.4L427.1 623.2 447.9 564.3 937.5 737.1V137.9L447.9 310.7 427.1 251.8 1000 49.6ZM832.9 241.2L854.6 299.8 573.7 403.6 552 345 832.9 241.2ZM187.5 625H0V250H187.5V625ZM62.5 562.5H125V312.5H62.5V562.5ZM250 937.5C181.1 937.5 125 881.4 125 812.5V687.5H187.5V812.5C187.5 847 215.5 875 250 875S312.5 847 312.5 812.5V687.5H437.5V750H375V812.5C375 881.4 318.9 937.5 250 937.5Z",
        "width": 1000
      },
      "search": [
        "megaphone"
      ]
    },
    {
      "uid": "34d87024b43c69f505db06c7c2817cef",
      "css": "key",
      "code": 59644,
      "src": "custom_icons",
      "selected": true,
      "svg": {
        "path": "M281.3 1000H0V800.2L352 416.4 398 458.6 62.5 824.5V937.5H218.8V812.5H360.6L538.8 604.7 586.2 645.3 389.3 875H281.3ZM687.5 625V562.5C825.3 562.5 937.5 450.3 937.5 312.5S825.3 62.5 687.5 62.5 437.5 174.7 437.5 312.5H375C375 140.2 515.2 0 687.5 0S1000 140.2 1000 312.5 859.8 625 687.5 625ZM687.5 437.5C618.6 437.5 562.5 381.4 562.5 312.5S618.6 187.5 687.5 187.5 812.5 243.6 812.5 312.5 756.4 437.5 687.5 437.5ZM687.5 250C653 250 625 278 625 312.5S653 375 687.5 375 750 347 750 312.5 722 250 687.5 250Z",
        "width": 1000
      },
      "search": [
        "key"
      ]
    },
    {
      "uid": "ca736b935e638e202b548963e2b625d5",
      "css": "play-1",
      "code": 59648,
      "src": "custom_icons",
      "selected": true,
      "svg": {
        "path": "M500 1000C224.3 1000 0 775.7 0 500S224.3 0 500 0 1000 224.3 1000 500 775.7 1000 500 1000ZM500 62.5C258.8 62.5 62.5 258.8 62.5 500S258.8 937.5 500 937.5 937.5 741.3 937.5 500 741.3 62.5 500 62.5ZM375 712.7V437.5H437.5V599.8L594.8 501.6 359.8 371.1 390.2 316.4 717.8 498.4Z",
        "width": 1000
      },
      "search": [
        "play"
      ]
    },
    {
      "uid": "8b2e5a7699b9b2c89f0afdc81d9e0563",
      "css": "like",
      "code": 59654,
      "src": "custom_icons",
      "selected": true,
      "svg": {
        "path": "M327.5 437.5H250V375H297.5L406.3 239V125C406.3 56.1 462.3 0 531.3 0S656.3 56.1 656.3 125H593.8C593.8 90.5 565.7 62.5 531.3 62.5S468.8 90.5 468.8 125V261L327.5 437.5ZM869.1 1000L522.7 998.8 308.1 937.5H250V875L321.1 876.2 535.6 937.5H820.3L930.4 494.1 593.8 433.3V125H656.3V381.1L1007.1 444.4ZM187.5 937.5H0V375H187.5V937.5ZM62.5 875H125V437.5H62.5V875Z",
        "width": 1000
      },
      "search": [
        "like"
      ]
    },
    {
      "uid": "2d3a9b9a290f54011f51080d0a925a99",
      "css": "dislike",
      "code": 59655,
      "src": "custom_icons",
      "selected": true,
      "svg": {
        "path": "M531.3 1000C462.3 1000 406.3 943.9 406.3 875V761L297.5 625H250V562.5H327.5L468.8 739V875C468.8 909.5 496.8 937.5 531.3 937.5S593.8 909.5 593.8 875H656.3C656.3 943.9 600.2 1000 531.3 1000ZM656.3 875H593.8V567.6L619.4 562 930.4 505.9 820.3 62.5H535.6L312.5 125H250V62.5H308.1L531.3 0H869.1L1007.1 555.6 656.3 618.9ZM187.5 625H0V62.5H187.5V625ZM62.5 562.5H125V125H62.5V562.5Z",
        "width": 1000
      },
      "search": [
        "dislike"
      ]
    },
    {
      "uid": "bd8d744830fd34301a6fc88073edf3aa",
      "css": "help-1",
      "code": 59656,
      "src": "custom_icons",
      "selected": true,
      "svg": {
        "path": "M566.6 997.5L558.4 935.6C774.5 907 937.5 720.7 937.5 502.2 937.5 260.9 741.3 64.7 500 64.7S62.5 260.9 62.5 502.2C62.5 720.7 225.5 907 441.6 935.6L433.4 997.5C186.3 964.9 0 752 0 502.2 0 226.5 224.3 2.2 500 2.2S1000 226.5 1000 502.2C1000 752 813.7 964.9 566.6 997.5ZM531.3 590.6H468.8V466.6H500C568.9 466.6 625 410.5 625 341.6S568.9 216.6 500 216.6 375 272.6 375 341.6H312.5C312.5 238.2 396.6 154.1 500 154.1S687.5 238.2 687.5 341.6C687.5 434.3 619.8 511.5 531.3 526.5V590.6ZM500 841.6C448.3 841.6 406.3 799.5 406.3 747.8S448.3 654.1 500 654.1 593.8 696.1 593.8 747.8 551.7 841.6 500 841.6ZM500 716.6C482.8 716.6 468.8 730.6 468.8 747.8S482.8 779.1 500 779.1 531.3 765.1 531.3 747.8 517.2 716.6 500 716.6Z",
        "width": 1000
      },
      "search": [
        "help"
      ]
    },
    {
      "uid": "94a9762b8bdf82586495ba3314f2add3",
      "css": "info-1",
      "code": 59653,
      "src": "custom_icons",
      "selected": true,
      "svg": {
        "path": "M500 997.8C224.3 997.8 0 773.5 0 497.8 0 248 186.3 35.1 433.4 2.5L441.6 64.4C225.5 93 62.5 279.3 62.5 497.8 62.5 739.1 258.8 935.3 500 935.3S937.5 739.1 937.5 497.8C937.5 279.3 774.5 93 558.4 64.4L566.6 2.5C813.7 35.1 1000 248 1000 497.8 1000 773.5 775.7 997.8 500 997.8ZM500 404.1C448.3 404.1 406.3 362 406.3 310.3S448.3 216.6 500 216.6 593.8 258.6 593.8 310.3 551.7 404.1 500 404.1ZM500 279.1C482.8 279.1 468.8 293.1 468.8 310.3S482.8 341.6 500 341.6 531.3 327.6 531.3 310.3 517.2 279.1 500 279.1ZM468.8 466.6H531.3V779.1H468.8V466.6Z",
        "width": 1000
      },
      "search": [
        "info"
      ]
    },
    {
      "uid": "bbbfde3eed3d63a39b1c65e77513977c",
      "css": "settings",
      "code": 59652,
      "src": "custom_icons",
      "selected": true,
      "svg": {
        "path": "M499.4 656.2H498.8C457.1 656.1 417.9 639.7 388.5 610.1 359.1 580.4 343 541.2 343.1 499.4 343.4 413.6 413.5 343.7 499.4 343.7 541.7 343.9 580.9 360.3 610.3 389.9 639.7 419.5 655.8 458.8 655.6 500.5 655.3 586.4 585.3 656.2 499.4 656.2ZM499.8 406.2C447.9 406.2 405.8 448.1 405.7 499.6 405.6 524.7 415.3 548.3 432.9 566 450.5 583.8 474.1 593.6 499.1 593.7L499.4 625V593.7C550.9 593.7 593 551.8 593.2 500.3 593.3 475.2 583.6 451.7 565.9 433.9S524.8 406.3 499.8 406.2ZM605.1 1000.4L406.4 999.7 367.9 853.9C329.8 840.7 294.6 821.6 262.7 797.1L122.2 834.3 23.4 661.8 122.2 564.7C118.3 542.3 116.3 520.1 116.4 498.6 116.4 481.2 117.8 463.5 120.5 445.5L9.5 333.8 109.5 162.1 261.2 204.2C293.4 179 329 159.6 367.3 146.2L370.6 120.8 432.6 128.7 424.2 194.3 404.5 200C361.8 212.3 322.8 233.3 288.7 262.3L276.1 273.1 139.3 235.2 87.7 323.8 187.9 424.6 184.7 440.9C180.9 460.5 178.9 480 178.9 498.8 178.8 521.3 181.4 544.7 186.7 568.5L190.4 585.3 101.6 672.6 152.6 761.6 277.7 728.5 290.1 738.9C323.2 766.8 361.1 787.2 402.7 799.5L419.5 804.5 454.6 937.4 557.2 937.8 595.2 795.2 609.5 789.3C640 776.8 668.4 759.4 694 737.6L706.6 726.8 843.5 764.8 895.1 676.1 794.9 575.4 798.1 559.2C801.8 539.4 803.8 519.9 803.9 501.1 803.9 487.2 802.8 472.8 800.3 455.6L798 439.9 912.3 327.5 861.4 238.5 711.7 278.1 699.1 267C672.5 243.3 643 224.6 611.3 211.4L597.1 205.5 559.4 62.7 401.5 62.3 401.7-0.3 607.7 0.4 649.7 160.1C677.3 173 703.5 189.5 727.7 209.3L891.8 165.8 990.5 338.3 864.2 462.5C865.7 476.3 866.4 489.1 866.4 501.3 866.3 518.8 864.9 536.5 862.2 554.4L973.2 666.1 873.2 837.9 721.5 795.8C698.5 813.7 673.8 828.8 647.7 840.8L605.1 1000.4Z",
        "width": 1000
      },
      "search": [
        "settings"
      ]
    },
    {
      "uid": "6af17b342e85f1b9839d0e84bda2a42d",
      "css": "worldwide",
      "code": 59659,
      "src": "custom_icons",
      "selected": true,
      "svg": {
        "path": "M500 1000C224.3 1000 0 775.7 0 500S224.3 0 500 0 1000 224.3 1000 500 775.7 1000 500 1000ZM500 62.5C258.8 62.5 62.5 258.8 62.5 500S258.8 937.5 500 937.5 937.5 741.3 937.5 500 741.3 62.5 500 62.5ZM548.3 892.5L592.1 612 388.4 509.7 510.1 359.5 467.4 344.3 301.9 382.3 201 305.2 238.9 255.5 316.5 314.8 471.2 279.3 614.2 330.2 485.8 488.7 660.9 576.6 636.5 732.5 748.8 634.6 812.2 398.8 872.6 415 804.2 669.2ZM327.4 786.8L266 774.8 286.8 668.8 160.5 656.1 166.7 593.9 361.4 613.5Z",
        "width": 1000
      },
      "search": [
        "worldwide"
      ]
    },
    {
      "uid": "e6bcfc54f3c14f0288b26acbdbe1381c",
      "css": "phone",
      "code": 59437,
      "src": "custom_icons",
      "selected": false,
      "svg": {
        "path": "M812.5 250H187.5V0H812.5V250ZM250 187.5H750V62.5H250V187.5ZM812.5 1000H187.5V311H250V937.5H750V311H812.5ZM468.8 812.5H531.3V875H468.8V812.5ZM437.5 93.8H562.5V156.3H437.5V93.8ZM218.8 687.5H781.3V750H218.8V687.5Z",
        "width": 1000
      },
      "search": [
        "phone"
      ]
    },
    {
      "uid": "5afae37733df2c72f7bddc6966d3ab8f",
      "css": "phone2",
      "code": 59658,
      "src": "custom_icons",
      "selected": true,
      "svg": {
        "path": "M653.4 1008C505.8 1008 341.3 937 207.8 803.8-5.7 590.9-63.5 294.7 73.2 114.8L122.9 152.6C7 305.2 63.7 571.8 251.9 759.6 439.8 947.1 703.1 1000.2 851.3 880.5L890.6 929.1C824.7 982.3 742.1 1008 653.4 1008ZM946.6 855.9L710.4 619 667.9 661.6C623.3 706.4 563.8 731.2 500.5 731.2 437.3 731.2 377.8 706.5 333.1 661.6 240.8 569.1 240.8 418.5 333.1 325.9L375.7 283.2 139.3 46 183.6 1.9 463.9 283.1 377.3 370C309.3 438.2 309.3 549.2 377.3 617.4 410.3 650.5 454 668.7 500.5 668.7 547 668.7 590.8 650.4 623.7 617.4L710.4 530.4 990.9 811.8 946.6 855.9Z",
        "width": 1000
      },
      "search": [
        "phone2"
      ]
    },
    {
      "uid": "653f1fb7da16d7108f2181d6b4d92084",
      "css": "pointer",
      "code": 59657,
      "src": "custom_icons",
      "selected": true,
      "svg": {
        "path": "M256.7 597.7C123.1 461.3 123.1 239.3 256.7 102.8 321.7 36.5 408.1 0 500 0 500 0 500 0 500 0 591.9 0 678.3 36.5 743.3 102.8 876.9 239.3 876.9 461.3 743.3 597.7L698.6 554C808.7 441.7 808.7 258.9 698.6 146.6 645.6 92.3 575 62.5 500 62.5H500C425 62.5 354.5 92.4 301.3 146.6 191.3 258.9 191.3 441.7 301.3 554L256.7 597.7ZM500 996.5L317.3 704.1 370.3 670.9 500 878.5 629.8 670.9 682.8 704.1ZM500 531.3C396.6 531.3 312.5 447.2 312.5 343.8S396.6 156.3 500 156.3 687.5 240.3 687.5 343.8 603.4 531.3 500 531.3ZM500 218.8C431.1 218.8 375 274.8 375 343.8S431.1 468.8 500 468.8 625 412.7 625 343.8 568.9 218.8 500 218.8Z",
        "width": 1000
      },
      "search": [
        "pointer"
      ]
    },
    {
      "uid": "d05084798134126a4ac0b6a21842f456",
      "css": "mail-1",
      "code": 59660,
      "src": "custom_icons",
      "selected": true,
      "svg": {
        "path": "M1000 906.3H0V93.8H1000V906.3ZM62.5 843.8H937.5V156.3H62.5V843.8ZM285.8 390.2L339.3 422.3 151.8 734.8 98.2 702.7 285.8 390.2ZM500 534.9L111 340.5 139 284.5 500 465.1 861 284.5 889 340.5ZM714.3 390.2L901.8 702.7 848.2 734.8 660.7 422.3 714.3 390.2Z",
        "width": 1000
      },
      "search": [
        "mail"
      ]
    },
    {
      "uid": "8a195c61f4b20af43bb99ede6fa75edd",
      "css": "heart-1",
      "code": 59662,
      "src": "custom_icons",
      "selected": true,
      "svg": {
        "path": "M510 960.4L69.8 551.8C24.8 498 0 429.7 0 359.4 0 195.7 133.2 62.5 296.9 62.5 373.2 62.5 445.5 91.2 500 142.2 554.5 91.2 626.8 62.5 703.1 62.5 866.8 62.5 1000 195.7 1000 359.4 1000 429.7 975.2 498 930.2 551.8L927.3 554.9 583.5 866.9 541.5 820.6 883.6 510.1C917.9 468.3 937.5 413.5 937.5 359.4 937.5 230.1 832.4 125 703.1 125 633.5 125 568.2 155.1 523.9 207.7L500 236 476.1 207.6C431.8 155.1 366.5 125 296.9 125 167.6 125 62.5 230.1 62.5 359.4 62.5 413.6 82.2 468.4 116.5 510.2L552.5 914.6 510 960.4ZM475.3 757.7L160.6 465.2C137.6 434.9 125 397.3 125 359.4 125 264.6 202.1 187.5 296.9 187.5V250C236.6 250 187.5 299.1 187.5 359.4 187.5 382.6 195.3 406.5 208.9 425.4L517.8 711.9 475.3 757.7ZM607.5 312.8L552.8 282.6C574.9 242.4 611.4 213.3 655.6 200.5 699.7 187.8 746.1 192.9 786.3 215L756.1 269.8C730.6 255.7 701.1 252.4 672.9 260.6 644.8 268.7 621.6 287.2 607.5 312.8Z",
        "width": 1000
      },
      "search": [
        "heart"
      ]
    },
    {
      "uid": "610845f09772a2fc046455a4d0d49614",
      "css": "message",
      "code": 59661,
      "src": "custom_icons",
      "selected": true,
      "svg": {
        "path": "M0 982.5V62.5H1000V718.8H343.8V656.3H937.5V125H62.5V798.8L162.7 668.5 212.3 706.5ZM187.5 281.3H812.5V343.8H187.5V281.3ZM187.5 438.5H625V501H187.5V438.5Z",
        "width": 1000
      },
      "search": [
        "message"
      ]
    },
    {
      "uid": "33532666cd8d14d4d1a66ce607f99319",
      "css": "eye-1",
      "code": 59663,
      "src": "custom_icons",
      "selected": true,
      "svg": {
        "path": "M937.8 472.8C916.9 312.1 726.2 187.5 502.4 187.5 500.8 187.5 499.1 187.5 497.4 187.5 271.3 189.4 80.1 314.4 62.3 472.3L0.2 465.2C21.8 273.4 235.4 127.2 496.9 125 498.7 125 500.5 125 502.3 125 757 125 974.9 273.5 999.8 464.8L937.8 472.8ZM497.7 875C243 875 25 726.6 0.3 535.3L62.3 527.2C83 687.9 273.8 812.5 497.7 812.5 499.3 812.5 500.9 812.5 502.6 812.5 728.8 810.6 919.9 685.6 937.7 527.8L999.8 534.8C978.2 726.6 764.7 872.8 503.1 875 501.3 875 499.5 875 497.7 875ZM500 750C363.3 750 251.2 638.8 250 502.1 248.9 364.3 360.1 251.2 498 250 636.8 250 748.9 361.2 750 497.9 750.6 564.7 725.1 627.7 678.3 675.3 631.4 722.9 568.8 749.4 502.1 750H500ZM500 312.5C395.1 313.3 311.7 398.2 312.5 501.6 313.4 604.1 397.5 687.5 500 687.5V718.8L501.6 687.5C551.7 687.1 598.6 667.2 633.7 631.5 668.8 595.8 687.9 548.6 687.5 498.5 686.7 395.9 602.6 312.5 500 312.5ZM375 501.1C374.4 432.1 430.1 375.6 499 375L499.5 437.5C465 437.8 437.3 466.1 437.5 500.5L375 501.1Z",
        "width": 1000
      },
      "search": [
        "eye"
      ]
    },
    {
      "uid": "daae5fd6725e369aee0f88b2a50061f8",
      "css": "fullshoppingcart",
      "code": 59664,
      "src": "custom_icons",
      "selected": true,
      "svg": {
        "path": "M901.1 687.5H288.8L132.5 125H31.3V62.5H180L336.3 625H848.9L900.1 343.8H407.7V281.3H974.9ZM375 937.5C323.3 937.5 281.3 895.4 281.3 843.8S323.3 750 375 750 468.8 792.1 468.8 843.8 426.7 937.5 375 937.5ZM375 812.5C357.8 812.5 343.8 826.5 343.8 843.8S357.8 875 375 875 406.3 861 406.3 843.8 392.3 812.5 375 812.5ZM781.3 937.5C729.6 937.5 687.5 895.4 687.5 843.8S729.6 750 781.3 750 875 792.1 875 843.8 832.9 937.5 781.3 937.5ZM781.3 812.5C764 812.5 750 826.5 750 843.8S764 875 781.3 875 812.5 861 812.5 843.8 798.5 812.5 781.3 812.5ZM468.8 406.3H531.3V562.5H468.8V406.3ZM656.3 406.3H718.8V562.5H656.3V406.3ZM468.8 218.8H406.3V133.7L615.1 64.1 634.9 123.4 468.8 178.8ZM906.3 218.8H843.8V149.4L656.3 102.5V218.8H593.8V22.5L906.3 100.6Z",
        "width": 1000
      },
      "search": [
        "fullshoppingcart"
      ]
    },
    {
      "uid": "809b5a60e4a78dcdc4ca397163b460d7",
      "css": "exitfullscreen",
      "code": 59665,
      "src": "custom_icons",
      "selected": true,
      "svg": {
        "path": "M812.5 468.8H531.3V187.5H593.8V406.3H812.5ZM946.7 9.2L990.9 53.3 613.7 430.6 569.5 386.4 946.7 9.2ZM468.8 812.5H406.3V593.8H187.5V531.3H468.8ZM386.4 569.4L430.6 613.6 53.4 990.8 9.2 946.7 386.4 569.4ZM62.5 219.8H0V1.2H218.7V63.7H62.5ZM0 282.4H62.5V469.8H0V282.4ZM281.3 1.1H468.8V63.6H281.3V1.1ZM1000 999.9H781.3V937.4H937.5V781.3H1000ZM937.5 531.3H1000V718.7H937.5V531.3ZM531.3 937.5H718.8V1000H531.3V937.5Z",
        "width": 1000
      },
      "search": [
        "exitfullscreen"
      ]
    },
    {
      "uid": "0367ed35da513d9f268a94cd5c96f434",
      "css": "bigtruck",
      "code": 59666,
      "src": "custom_icons",
      "selected": true,
      "svg": {
        "path": "M217.2 177.8L278.7 365.3 219.3 384.8 157.8 197.3 217.2 177.8ZM405.7 177.8L467.2 365.3 407.8 384.8 346.3 197.3 405.7 177.8ZM250 937.5C146.6 937.5 62.5 853.4 62.5 750S146.6 562.5 250 562.5 437.5 646.6 437.5 750 353.4 937.5 250 937.5ZM250 625C181.1 625 125 681.1 125 750S181.1 875 250 875 375 818.9 375 750 318.9 625 250 625ZM812.5 937.5C709.1 937.5 625 853.4 625 750S709.1 562.5 812.5 562.5 1000 646.6 1000 750 915.9 937.5 812.5 937.5ZM812.5 625C743.6 625 687.5 681.1 687.5 750S743.6 875 812.5 875 937.5 818.9 937.5 750 881.4 625 812.5 625ZM625 568.2L0 464V62.5H1000V125H62.5V411L562.5 494.3V187.5H625ZM1000 562.5H937.5V411.3L883.7 250H750V437.5H875V500H687.5V187.5H928.8L1000 401.2Z",
        "width": 1000
      },
      "search": [
        "bigtruck"
      ]
    },
    {
      "uid": "f4fe28b55f192dbdf836a7918adc004d",
      "css": "settings-1",
      "code": 59667,
      "src": "custom_icons",
      "selected": true,
      "svg": {
        "path": "M499.4 656.2H498.8C457.1 656.1 417.9 639.7 388.5 610.1 359.1 580.4 343 541.2 343.1 499.4 343.4 413.6 413.5 343.7 499.4 343.7 541.7 343.9 580.9 360.3 610.3 389.9 639.7 419.5 655.8 458.8 655.6 500.5 655.3 586.4 585.3 656.2 499.4 656.2ZM499.8 406.2C447.9 406.2 405.8 448.1 405.7 499.6 405.6 524.7 415.3 548.3 432.9 566 450.5 583.8 474.1 593.6 499.1 593.7L499.4 625V593.7C550.9 593.7 593 551.8 593.2 500.3 593.3 475.2 583.6 451.7 565.9 433.9S524.8 406.3 499.8 406.2ZM605.1 1000.4L406.4 999.7 367.9 853.9C329.8 840.7 294.6 821.6 262.7 797.1L122.2 834.3 23.4 661.8 122.2 564.7C118.3 542.3 116.3 520.1 116.4 498.6 116.4 481.2 117.8 463.5 120.5 445.5L9.5 333.8 109.5 162.1 261.2 204.2C293.4 179 329 159.6 367.3 146.2L370.6 120.8 432.6 128.7 424.2 194.3 404.5 200C361.8 212.3 322.8 233.3 288.7 262.3L276.1 273.1 139.3 235.2 87.7 323.8 187.9 424.6 184.7 440.9C180.9 460.5 178.9 480 178.9 498.8 178.8 521.3 181.4 544.7 186.7 568.5L190.4 585.3 101.6 672.6 152.6 761.6 277.7 728.5 290.1 738.9C323.2 766.8 361.1 787.2 402.7 799.5L419.5 804.5 454.6 937.4 557.2 937.8 595.2 795.2 609.5 789.3C640 776.8 668.4 759.4 694 737.6L706.6 726.8 843.5 764.8 895.1 676.1 794.9 575.4 798.1 559.2C801.8 539.4 803.8 519.9 803.9 501.1 803.9 487.2 802.8 472.8 800.3 455.6L798 439.9 912.3 327.5 861.4 238.5 711.7 278.1 699.1 267C672.5 243.3 643 224.6 611.3 211.4L597.1 205.5 559.4 62.7 401.5 62.3 401.7-0.3 607.7 0.4 649.7 160.1C677.3 173 703.5 189.5 727.7 209.3L891.8 165.8 990.5 338.3 864.2 462.5C865.7 476.3 866.4 489.1 866.4 501.3 866.3 518.8 864.9 536.5 862.2 554.4L973.2 666.1 873.2 837.9 721.5 795.8C698.5 813.7 673.8 828.8 647.7 840.8L605.1 1000.4Z",
        "width": 1000
      },
      "search": [
        "settings"
      ]
    },
    {
      "uid": "3fef9b587b191fe58f5677afdf753f54",
      "css": "iconmonstr-quote-2-icon-(1)",
      "code": 59668,
      "src": "custom_icons",
      "selected": false,
      "svg": {
        "path": "M432.4 215.2C432.4 215.2 432.4 317 432.4 429.1 432.4 620.4 311.5 750 135.4 784.8L102 712.7C183.6 682 235.3 608.4 235.3 534.3H97.7V215.2H432.4ZM902.3 215.2C902.3 215.2 902.3 317 902.3 429.1 902.3 620.4 781.5 750 605.4 784.8L572 712.7C653.6 682 705.3 608.4 705.3 534.3H567.6V215.2H902.3Z",
        "width": 1000
      },
      "search": [
        "iconmonstr-quote-2-icon-(1)"
      ]
    },
    {
      "uid": "3eaa0b2e91194c84aa12a09885438c54",
      "css": "iconmonstr-quote-2-theme",
      "code": 59668,
      "src": "custom_icons",
      "selected": true,
      "svg": {
        "path": "M432.4 215.2C432.4 215.2 432.4 317 432.4 429.1 432.4 620.4 311.5 750 135.4 784.8L102 712.7C183.6 682 235.3 608.4 235.3 534.3H97.7V215.2H432.4ZM902.3 215.2C902.3 215.2 902.3 317 902.3 429.1 902.3 620.4 781.5 750 605.4 784.8L572 712.7C653.6 682 705.3 608.4 705.3 534.3H567.6V215.2H902.3Z",
        "width": 1000
      },
      "search": [
        "iconmonstr-quote-2-theme"
      ]
    },
    {
      "uid": "ee0c27044739819e2c1668bb9ecf9bf1",
      "css": "fullscreen",
      "code": 59669,
      "src": "custom_icons",
      "selected": true,
      "svg": {
        "path": "M1000 281.3H937.5V62.5H718.8V0H1000ZM946.7 9.2L990.8 53.3 582.4 461.8 538.2 417.6 946.7 9.2ZM281.2 1000H0V718.8H62.5V937.5H281.2ZM417.7 538.2L461.8 582.4 53.4 990.8 9.2 946.7 417.7 538.2ZM187.5 343.8H125V125.1H343.7V187.6H187.5ZM125 406.3H187.5V593.8H125V406.3ZM406.3 125H593.8V187.5H406.3V125ZM875 874.9H656.3V812.4H812.5V656.3H875ZM812.5 406.3H875V593.7H812.5V406.3ZM406.3 812.5H593.7V875H406.3V812.5Z",
        "width": 1000
      },
      "search": [
        "fullscreen"
      ]
    },
    {
      "uid": "359b13a1a558bb1a86fc543f178f0aab",
      "css": "worldglobe",
      "code": 59670,
      "src": "custom_icons",
      "selected": true,
      "svg": {
        "path": "M437.7 874.9C309.7 874.9 181.6 826.2 84.2 728.8L128.3 684.6C298.9 855.1 576.5 855.1 747.1 684.6 917.7 513.9 917.7 236.4 747.1 65.8L791.3 21.7C986.2 216.5 986.2 533.8 791.3 728.8 693.8 826.2 565.8 874.9 437.7 874.9ZM437.5 750C230.7 750 62.5 581.8 62.5 375S230.7 0 437.5 0 812.5 168.2 812.5 375 644.3 750 437.5 750ZM437.5 62.5C265.2 62.5 125 202.7 125 375S265.2 687.5 437.5 687.5 750 547.3 750 375 609.8 62.5 437.5 62.5ZM281.3 937.5H593.8V1000H281.3V937.5ZM451.4 647.4L483.1 425.7 348.6 351.8 426.1 247.3 413.7 242.5 304.8 269.8 235 211.5 275.1 163.5 320.4 201.4 417.8 177 525.1 218.7 441.5 331.5 551.1 391.8 538.8 477.6 585.6 433 625.9 269.2 686.6 284.1 641.9 465.7ZM335.3 545.6L273.7 534.6 285.5 469.2 215.3 461.4 222.2 399.3 358.9 414.4Z",
        "width": 1000
      },
      "search": [
        "worldglobe"
      ]
    },
    {
      "uid": "d2955626b8b78ec7848a9a1bfccd367f",
      "css": "cloud",
      "code": 59671,
      "src": "custom_icons",
      "selected": true,
      "svg": {
        "path": "M499.9 500H437.4C437.4 495.5 437.2 491 437.1 486.6L436.6 482.3 436.9 479.3C446.9 371.5 546.1 282.6 658.1 281.2L658.9 343.7C578.9 344.7 508 406.7 499.4 482.3 499.7 489.4 499.9 494.7 499.9 500ZM656.1 843.8H250.2C112.3 843.8 0.1 731.6 0.1 593.8S112.3 343.8 250.1 343.8V406.3C146.7 406.3 62.6 490.3 62.6 593.8S146.8 781.3 250.2 781.3H656.1C811.2 781.3 937.4 655.1 937.4 500 937.4 345.7 812.5 220 658.5 218.8 512.3 220 387.8 331.5 374.6 473.6 374.2 478.5 374.4 483.5 374.6 488.6 374.8 492.3 374.9 496.1 374.9 500H312.4C312.4 496.9 312.3 493.8 312.2 490.8 311.9 483.1 311.7 475.4 312.4 467.8 328.5 294.6 479 158.6 656.2 156.3V156.3L660.8 156.3C848.2 158.8 999.9 312 999.9 500 999.9 689.5 845.7 843.8 656.1 843.8Z",
        "width": 1000
      },
      "search": [
        "cloud"
      ]
    },
    {
      "uid": "1f04972beb8a51f5001e43603fcca83a",
      "css": "downloadcloud",
      "code": 59672,
      "src": "custom_icons",
      "selected": true,
      "svg": {
        "path": "M656.1 781.3V718.8C811.2 718.8 937.4 592.6 937.4 437.5 937.4 283.2 812.5 157.5 658.5 156.3 512.3 157.5 387.9 269 374.6 411.1 374.2 416 374.4 421 374.6 426.1 374.8 429.8 374.9 433.6 374.9 437.5H312.4C312.4 434.4 312.3 431.3 312.2 428.3 311.9 420.6 311.7 412.9 312.4 405.3 328.5 232.1 479 96.1 656.1 93.8V93.8L660.8 93.8C848.2 96.3 999.9 249.5 999.9 437.5 999.9 627 845.7 781.3 656.1 781.3ZM499.9 437.5H437.4C437.4 433 437.3 428.5 437.1 424.1L436.6 419.8 436.9 416.8C446.9 309 546.2 220.1 658.1 218.7L658.9 281.2C578.9 282.2 508 344.2 499.4 419.8 499.8 426.9 499.9 432.2 499.9 437.5ZM343.6 781.3H250.2C112.3 781.3 0.1 669.1 0.1 531.3S112.2 281.3 250.1 281.3V343.8C146.7 343.8 62.6 427.8 62.6 531.3S146.7 718.8 250.2 718.8H343.6V781.3ZM468.6 625H531.1V875H468.6V625ZM499.8 912.6L384.8 804 427.7 758.5 499.9 826.7 572.3 758.5 615.2 804Z",
        "width": 1000
      },
      "search": [
        "downloadcloud"
      ]
    },
    {
      "uid": "084073d0d6434e7d978837376fc5290c",
      "css": "bulb",
      "code": 59673,
      "src": "custom_icons",
      "selected": true,
      "svg": {
        "path": "M653.4 670.6L597.7 642.4 676.8 489.3C774.3 391.8 774.3 233.3 676.8 135.8S420.7 38.3 323.2 135.8 225.8 391.8 323.2 489.3L326.8 492.9 401.9 642.5 346.1 670.5 275.4 529.8C157.2 407.7 158.4 212.2 279 91.6 400.9-30.3 599.2-30.3 721 91.6 841.6 212.2 842.8 407.7 724.6 529.8L653.4 670.6ZM621.2 687.8L628.7 749.8 378.7 780.1 371.2 718 621.2 687.8ZM621.2 781.5L628.7 843.6 378.7 873.8 371.2 811.8 621.2 781.5ZM499.3 1000C447.6 1000 405.5 957.9 405.5 906.3H468C468 923.5 482.1 937.5 499.3 937.5S530.5 923.5 530.5 906.3H593C593 957.9 551 1000 499.3 1000ZM375 312.5H312.5C312.5 209.1 396.6 125 500 125V187.5C431.1 187.5 375 243.6 375 312.5Z",
        "width": 1000
      },
      "search": [
        "bulb"
      ]
    },
    {
      "uid": "cd264b31b8e8b22c8c3535ecdecf7011",
      "css": "layers",
      "code": 59674,
      "src": "custom_icons",
      "selected": true,
      "svg": {
        "path": "M500 590.2L27.8 335.9 500 81.7 972.2 335.9 500 590.2ZM159.7 335.9L500 519.2 840.3 335.9 500 152.7 159.7 335.9ZM500 741.7L48.8 520.3 76.3 464.1 500 672.1 923.8 464.1 951.3 520.3ZM500 902L48.8 680.5 76.3 624.4 500 832.4 923.8 624.4 951.3 680.5Z",
        "width": 1000
      },
      "search": [
        "layers"
      ]
    },
    {
      "uid": "7d86fbfdc1153f12c2e56088efa60e2d",
      "css": "house",
      "code": 59675,
      "src": "custom_icons",
      "selected": true,
      "svg": {
        "path": "M875.1 1000H125.1V593.8H187.6V937.5H812.6V593.8H875.1ZM946 583.9L500 108.2 54 583.9 8.5 541.1 500 16.8 991.5 541.1ZM625 875H562.5V656.3H437.5V875H375V593.8H625ZM500.1 531.3C431.1 531.3 375.1 475.2 375.1 406.3S431.1 281.3 500.1 281.3 625.1 337.3 625.1 406.3 569 531.3 500.1 531.3ZM500.1 343.8C465.6 343.8 437.6 371.8 437.6 406.3S465.6 468.8 500.1 468.8 562.6 440.7 562.6 406.3 534.5 343.8 500.1 343.8Z",
        "width": 1000
      },
      "search": [
        "house"
      ]
    },
    {
      "uid": "69120f987807813c7b14082fb8878d69",
      "css": "shoppingcart",
      "code": 59676,
      "src": "custom_icons",
      "selected": true,
      "svg": {
        "path": "M901.1 687.5H288.8L132.5 125H31.3V62.5H180L336.3 625H848.9L900.1 343.8H406.3V281.3H974.9ZM375 937.5C323.3 937.5 281.3 895.4 281.3 843.8S323.3 750 375 750 468.8 792.1 468.8 843.8 426.7 937.5 375 937.5ZM375 812.5C357.8 812.5 343.8 826.5 343.8 843.8S357.8 875 375 875 406.3 861 406.3 843.8 392.2 812.5 375 812.5ZM781.3 937.5C729.6 937.5 687.5 895.4 687.5 843.8S729.6 750 781.3 750 875 792.1 875 843.8 832.9 937.5 781.3 937.5ZM781.3 812.5C764 812.5 750 826.5 750 843.8S764 875 781.3 875 812.5 861 812.5 843.8 798.5 812.5 781.3 812.5ZM468.8 406.3H531.3V562.5H468.8V406.3ZM656.3 406.3H718.8V562.5H656.3V406.3Z",
        "width": 1000
      },
      "search": [
        "shoppingcart"
      ]
    },
    {
      "uid": "72109d2fb3088d0e66ea6a9204297651",
      "css": "spin1",
      "code": 59438,
      "src": "fontelico"
    },
    {
      "uid": "f0c301ac841dafc38d8eb1b933fc73e5",
      "css": "spin2",
      "code": 59439,
      "src": "fontelico"
    },
    {
      "uid": "2a6740fc2f9d0edea54205963f662594",
      "css": "spin3",
      "code": 59437,
      "src": "fontelico"
    },
    {
      "uid": "9bd60140934a1eb9236fd7a8ab1ff6ba",
      "css": "spin4",
      "code": 59440,
      "src": "fontelico"
    },
    {
      "uid": "5d2d07f112b8de19f2c0dbfec3e42c05",
      "css": "spin5",
      "code": 59441,
      "src": "fontelico"
    },
    {
      "uid": "9bc2902722abb366a213a052ade360bc",
      "css": "spin6",
      "code": 59442,
      "src": "fontelico"
    },
    {
      "uid": "9dd9e835aebe1060ba7190ad2b2ed951",
      "css": "search",
      "code": 59399,
      "src": "fontawesome"
    },
    {
      "uid": "bf882b30900da12fca090d9796bc3030",
      "css": "mail-empty",
      "code": 59416,
      "src": "fontawesome"
    },
    {
      "uid": "ccc2329632396dc096bb638d4b46fb98",
      "css": "mail",
      "code": 59417,
      "src": "fontawesome"
    },
    {
      "uid": "d73eceadda1f594cec0536087539afbf",
      "css": "heart",
      "code": 59562,
      "src": "fontawesome"
    },
    {
      "uid": "f3dc2d6d8fe9cf9ebff84dc260888cdf",
      "css": "heart-empty",
      "code": 59560,
      "src": "fontawesome"
    },
    {
      "uid": "474656633f79ea2f1dad59ff63f6bf07",
      "css": "star",
      "code": 59424,
      "src": "fontawesome"
    },
    {
      "uid": "d17030afaecc1e1c22349b99f3c4992a",
      "css": "star-empty",
      "code": 59592,
      "src": "fontawesome"
    },
    {
      "uid": "31972e4e9d080eaa796290349ae6c1fd",
      "css": "users-group",
      "code": 59420,
      "src": "fontawesome"
    },
    {
      "uid": "ca2d64f8a3ea7cbf6af45898b2dcf35e",
      "css": "male",
      "code": 59421,
      "src": "fontawesome"
    },
    {
      "uid": "9bf7e14698cccdca37a6f1a02cf7d79e",
      "css": "female",
      "code": 59422,
      "src": "fontawesome"
    },
    {
      "uid": "c2314ed1d2314b89f9285c53bcbf2548",
      "css": "child",
      "code": 59423,
      "src": "fontawesome"
    },
    {
      "uid": "381da2c2f7fd51f8de877c044d7f439d",
      "css": "picture",
      "code": 59404,
      "src": "fontawesome"
    },
    {
      "uid": "dd492243d64e21dfe16a92452f7861cb",
      "css": "th-large",
      "code": 59612,
      "src": "fontawesome"
    },
    {
      "uid": "b1887b423d2fd15c345e090320c91ca0",
      "css": "th",
      "code": 59613,
      "src": "fontawesome"
    },
    {
      "uid": "f805bb95d40c7ef2bc51b3d50d4f2e5c",
      "css": "th-list",
      "code": 59614,
      "src": "fontawesome"
    },
    {
      "uid": "c1f1975c885aa9f3dad7810c53b82074",
      "css": "lock",
      "code": 59435,
      "src": "fontawesome"
    },
    {
      "uid": "657ab647f6248a6b57a5b893beaf35a9",
      "css": "lock-open",
      "code": 59561,
      "src": "fontawesome"
    },
    {
      "uid": "5b0772e9484a1a11646793a82edd622a",
      "css": "pin",
      "code": 59393,
      "src": "fontawesome"
    },
    {
      "uid": "9c1376672bb4f1ed616fdd78a23667e9",
      "css": "comment",
      "code": 59589,
      "src": "fontawesome"
    },
    {
      "uid": "31951fbb9820ed0690f675b3d495c8da",
      "css": "chat-empty",
      "code": 59590,
      "src": "fontawesome"
    },
    {
      "uid": "cd21cbfb28ad4d903cede582157f65dc",
      "css": "bell",
      "code": 59591,
      "src": "fontawesome"
    },
    {
      "uid": "bbfb51903f40597f0b70fd75bc7b5cac",
      "css": "trash",
      "code": 59611,
      "src": "fontawesome"
    },
    {
      "uid": "f48ae54adfb27d8ada53d0fd9e34ee10",
      "css": "trash-empty",
      "code": 59610,
      "src": "fontawesome"
    },
    {
      "uid": "1b5a5d7b7e3c71437f5a26befdd045ed",
      "css": "doc",
      "code": 59599,
      "src": "fontawesome"
    },
    {
      "uid": "5408be43f7c42bccee419c6be53fdef5",
      "css": "doc-text",
      "code": 59600,
      "src": "fontawesome"
    },
    {
      "uid": "9daa1fdf0838118518a7e22715e83abc",
      "css": "file-pdf",
      "code": 59601,
      "src": "fontawesome"
    },
    {
      "uid": "310ffd629da85142bc8669f010556f2d",
      "css": "file-word",
      "code": 59602,
      "src": "fontawesome"
    },
    {
      "uid": "f761c3bbe16ba2d332914ecb28e7a042",
      "css": "file-excel",
      "code": 59603,
      "src": "fontawesome"
    },
    {
      "uid": "edcd4022de8d8df266ef7c42d2658ca5",
      "css": "file-powerpoint",
      "code": 59604,
      "src": "fontawesome"
    },
    {
      "uid": "3c961c1a8d874815856fc6637dc5a13c",
      "css": "file-image",
      "code": 59605,
      "src": "fontawesome"
    },
    {
      "uid": "e80ae555c1413a4ec18b33fb348b4049",
      "css": "file-archive",
      "code": 59606,
      "src": "fontawesome"
    },
    {
      "uid": "81db033e704eb7c586a365559d7c0f36",
      "css": "file-audio",
      "code": 59607,
      "src": "fontawesome"
    },
    {
      "uid": "dd69d9aa589ea7bc0a82a3fe67039f4b",
      "css": "file-video",
      "code": 59608,
      "src": "fontawesome"
    },
    {
      "uid": "26613a2e6bc41593c54bead46f8c8ee3",
      "css": "file-code",
      "code": 59609,
      "src": "fontawesome"
    },
    {
      "uid": "e99461abfef3923546da8d745372c995",
      "css": "cog",
      "code": 59430,
      "src": "fontawesome"
    },
    {
      "uid": "98687378abd1faf8f6af97c254eb6cd6",
      "css": "cogs",
      "code": 59431,
      "src": "fontawesome"
    },
    {
      "uid": "5bb103cd29de77e0e06a52638527b575",
      "css": "wrench",
      "code": 59433,
      "src": "fontawesome"
    },
    {
      "uid": "21b42d3c3e6be44c3cc3d73042faa216",
      "css": "sliders",
      "code": 59434,
      "src": "fontawesome"
    },
    {
      "uid": "ccddff8e8670dcd130e3cb55fdfc2fd0",
      "css": "down-open",
      "code": 59645,
      "src": "fontawesome"
    },
    {
      "uid": "d870630ff8f81e6de3958ecaeac532f2",
      "css": "left-open",
      "code": 59649,
      "src": "fontawesome"
    },
    {
      "uid": "399ef63b1e23ab1b761dfbb5591fa4da",
      "css": "right-open",
      "code": 59650,
      "src": "fontawesome"
    },
    {
      "uid": "fe6697b391355dec12f3d86d6d490397",
      "css": "up-open",
      "code": 59646,
      "src": "fontawesome"
    },
    {
      "uid": "f3f90c8c89795da30f7444634476ea4f",
      "css": "left",
      "code": 59447,
      "src": "fontawesome"
    },
    {
      "uid": "7bf14281af5633a597f85b061ef1cfb9",
      "css": "right",
      "code": 59446,
      "src": "fontawesome"
    },
    {
      "uid": "5de9370846a26947e03f63142a3f1c07",
      "css": "up",
      "code": 59445,
      "src": "fontawesome"
    },
    {
      "uid": "e4dde1992f787163e2e2b534b8c8067d",
      "css": "down",
      "code": 59432,
      "src": "fontawesome"
    },
    {
      "uid": "745f12abe1472d14f8f658de7e5aba66",
      "css": "double-left",
      "code": 59567,
      "src": "fontawesome"
    },
    {
      "uid": "fdfbd1fcbd4cb229716a810801a5f207",
      "css": "double-right",
      "code": 59568,
      "src": "fontawesome"
    },
    {
      "uid": "63b3012c8cbe3654ba5bea598235aa3a",
      "css": "double-up",
      "code": 59569,
      "src": "fontawesome"
    },
    {
      "uid": "dfec4ffa849d8594c2e4b86f6320b8a6",
      "css": "double-down",
      "code": 59570,
      "src": "fontawesome"
    },
    {
      "uid": "e835d9d0f2ee39ae01b01cc6a6fa24ab",
      "css": "play-circled2",
      "code": 59647,
      "src": "fontawesome"
    },
    {
      "uid": "757afacc32d82967975cbb3b45cfb41b",
      "css": "desktop",
      "code": 59429,
      "src": "fontawesome"
    },
    {
      "uid": "500fc1f109021e4b1de4deda2f7ed399",
      "css": "laptop",
      "code": 59428,
      "src": "fontawesome"
    },
    {
      "uid": "f001fc3d4daa7da078e8c971e4f36977",
      "css": "tablet",
      "code": 59427,
      "src": "fontawesome"
    },
    {
      "uid": "0357f7abbc0babf43509669f332e41e6",
      "css": "mobile",
      "code": 59426,
      "src": "fontawesome"
    },
    {
      "uid": "197375a3cea8cb90b02d06e4ddf1433d",
      "css": "globe",
      "code": 59425,
      "src": "fontawesome"
    },
    {
      "uid": "dd6c6b221a1088ff8a9b9cd32d0b3dd5",
      "css": "checkbox",
      "code": 59413,
      "src": "fontawesome"
    },
    {
      "uid": "4b900d04e8ab8c82f080c1cfbac5772c",
      "css": "checkbox-empty",
      "code": 59414,
      "src": "fontawesome"
    },
    {
      "uid": "130380e481a7defc690dfb24123a1f0c",
      "css": "circle",
      "code": 59412,
      "src": "fontawesome"
    },
    {
      "uid": "422e07e5afb80258a9c4ed1706498f8a",
      "css": "circle-empty",
      "code": 59410,
      "src": "fontawesome"
    },
    {
      "uid": "81bb68665e8e595505272a746db07c7a",
      "css": "circle-dot",
      "code": 59411,
      "src": "fontawesome"
    },
    {
      "uid": "aa58e30c7196b1378a6ca78c025cc3b5",
      "css": "behance",
      "code": 59496,
      "src": "fontawesome"
    },
    {
      "uid": "169f51b7e405de8c03cf85a6e8c740ab",
      "css": "bitbucket",
      "code": 59497,
      "src": "fontawesome"
    },
    {
      "uid": "66faf6c4e3b0e4e33f06171e30253e26",
      "css": "cc",
      "code": 59498,
      "src": "fontawesome"
    },
    {
      "uid": "76675011e906d50af404186b489fc76f",
      "css": "codeopen",
      "code": 59499,
      "src": "fontawesome"
    },
    {
      "uid": "01c946ce2ed5500e0a918f2b3a7d1923",
      "css": "css3",
      "code": 59500,
      "src": "fontawesome"
    },
    {
      "uid": "6975c4c656d41a0283d9c52516bf38ed",
      "css": "delicious",
      "code": 59501,
      "src": "fontawesome"
    },
    {
      "uid": "54fad985c676a007c79c346ebaec29d6",
      "css": "deviantart",
      "code": 59504,
      "src": "fontawesome"
    },
    {
      "uid": "ef0e69c3275e8c845aca69a79900092d",
      "css": "digg",
      "code": 59502,
      "src": "fontawesome"
    },
    {
      "uid": "199c44bca402ec5a6351f75ba5228375",
      "css": "dribbble",
      "code": 59503,
      "src": "fontawesome"
    },
    {
      "uid": "9e34a047fee949eae9b6e613d790d6cf",
      "css": "dropbox",
      "code": 59505,
      "src": "fontawesome"
    },
    {
      "uid": "d16ba9078d51e79b5ad6af0235adbd54",
      "css": "drupal",
      "code": 59506,
      "src": "fontawesome"
    },
    {
      "uid": "8e04c98c8f5ca0a035776e3001ad2638",
      "css": "facebook",
      "code": 59507,
      "src": "fontawesome"
    },
    {
      "uid": "649004fb1ed50395a33c3780236ba8aa",
      "css": "flickr",
      "code": 59508,
      "src": "fontawesome"
    },
    {
      "uid": "a32d12927584e3c8a3dff23eb816d360",
      "css": "foursquare",
      "code": 59509,
      "src": "fontawesome"
    },
    {
      "uid": "e7cb72a17f3b21e3576f35c3f0a7639b",
      "css": "git",
      "code": 59510,
      "src": "fontawesome"
    },
    {
      "uid": "5e0a374728ffa8d0ae1f331a8f648231",
      "css": "github",
      "code": 59511,
      "src": "fontawesome"
    },
    {
      "uid": "5b4b48418155c35459f12171f97c82ff",
      "css": "gittip",
      "code": 59512,
      "src": "fontawesome"
    },
    {
      "uid": "f06fe7ff18d1c591bc1183cb3ab105e9",
      "css": "google",
      "code": 59513,
      "src": "fontawesome"
    },
    {
      "uid": "b8d0c7d76e87b94882329a88e8e43d3d",
      "css": "gplus",
      "code": 59514,
      "src": "fontawesome"
    },
    {
      "uid": "50fbbd926b2a64fcaf384788056c0e43",
      "css": "gwallet",
      "code": 59515,
      "src": "fontawesome"
    },
    {
      "uid": "237ee28b7e826b75a5b6f51ee3e2bfc1",
      "css": "hacker-news",
      "code": 59516,
      "src": "fontawesome"
    },
    {
      "uid": "ff44f01f60948555026580eedf1e39bb",
      "css": "html5",
      "code": 59517,
      "src": "fontawesome"
    },
    {
      "uid": "4c1ef492f1d2c39a2250ae457cee2a6e",
      "css": "instagramm",
      "code": 59518,
      "src": "fontawesome"
    },
    {
      "uid": "9b9e5f3ee9e3525808ed2afc83e8bb0b",
      "css": "ioxhost",
      "code": 59519,
      "src": "fontawesome"
    },
    {
      "uid": "8cd1b9899389237def726c08587a649f",
      "css": "joomla",
      "code": 59520,
      "src": "fontawesome"
    },
    {
      "uid": "486f6d0a05aef9e65eeb07be26793bd3",
      "css": "jsfiddle",
      "code": 59521,
      "src": "fontawesome"
    },
    {
      "uid": "5dcf6620378353c5b0089b12d961fedf",
      "css": "lastfm",
      "code": 59522,
      "src": "fontawesome"
    },
    {
      "uid": "47a35af762c8e06f3d152750134c8750",
      "css": "linux",
      "code": 59523,
      "src": "fontawesome"
    },
    {
      "uid": "e9107949dd6c9e8ab2b29ae07156e38c",
      "css": "linkedin",
      "code": 59524,
      "src": "fontawesome"
    },
    {
      "uid": "fcdc6d7a89771d2dbd38eb719aafb2ff",
      "css": "maxcdn",
      "code": 59525,
      "src": "fontawesome"
    },
    {
      "uid": "9b2e17ef8fc33eb2a1c8b5953d51c595",
      "css": "meanpath",
      "code": 59526,
      "src": "fontawesome"
    },
    {
      "uid": "da8a58b1deff73d1ba89ba1172ca4bcc",
      "css": "openid",
      "code": 59527,
      "src": "fontawesome"
    },
    {
      "uid": "bbf50a560f95a4cce5209d47e71cbc30",
      "css": "pagelines",
      "code": 59528,
      "src": "fontawesome"
    },
    {
      "uid": "1d2b426ab6db81a58547ba13d8701ad8",
      "css": "paypal",
      "code": 59529,
      "src": "fontawesome"
    },
    {
      "uid": "da851b7c1f84ee83f93b29ae613558dc",
      "css": "pinterest-circled",
      "code": 59559,
      "src": "fontawesome"
    },
    {
      "uid": "657ff9fe5df74f1993937aa4b19cf909",
      "css": "qq",
      "code": 59530,
      "src": "fontawesome"
    },
    {
      "uid": "9121e3eb89863f67c8bda378eea01a93",
      "css": "reddit",
      "code": 59531,
      "src": "fontawesome"
    },
    {
      "uid": "cfa8a2588cab42a6ff7ba81eb4fec21b",
      "css": "renren",
      "code": 59532,
      "src": "fontawesome"
    },
    {
      "uid": "58a16628dcbd6456c61218f3d27591be",
      "css": "skype",
      "code": 59533,
      "src": "fontawesome"
    },
    {
      "uid": "87276033a77d0b9b890125c3639e4f87",
      "css": "slack",
      "code": 59534,
      "src": "fontawesome"
    },
    {
      "uid": "be13b8c668eb18839d5d53107725f1de",
      "css": "slideshare",
      "code": 59535,
      "src": "fontawesome"
    },
    {
      "uid": "dff942d95eb1b3f1be140e622d0a7c74",
      "css": "soundcloud",
      "code": 59536,
      "src": "fontawesome"
    },
    {
      "uid": "fb4794d89b77ab712ad56c0dc4c76c6b",
      "css": "spotify",
      "code": 59537,
      "src": "fontawesome"
    },
    {
      "uid": "b6d6b3561d705330c7ad2155e8ee94ba",
      "css": "stackexchange",
      "code": 59538,
      "src": "fontawesome"
    },
    {
      "uid": "e1597911f34fea0a188ae51fe4a2d9a9",
      "css": "stackoverflow",
      "code": 59539,
      "src": "fontawesome"
    },
    {
      "uid": "2ec1790207a8ba67a7192c6af1eafec4",
      "css": "steam",
      "code": 59540,
      "src": "fontawesome"
    },
    {
      "uid": "3958d12510001a1a172f088893506c27",
      "css": "stumbleupon",
      "code": 59541,
      "src": "fontawesome"
    },
    {
      "uid": "d9b33592f56a02af69a36aa64ed452fc",
      "css": "tencent-weibo",
      "code": 59542,
      "src": "fontawesome"
    },
    {
      "uid": "b846892636bd74112998bb159bdddf27",
      "css": "trello",
      "code": 59543,
      "src": "fontawesome"
    },
    {
      "uid": "43fcf807461234935e65261328e1dff6",
      "css": "tumblr",
      "code": 59544,
      "src": "fontawesome"
    },
    {
      "uid": "e70df9acbabaebfbbf9c1dbc3e52ab13",
      "css": "twitch",
      "code": 59545,
      "src": "fontawesome"
    },
    {
      "uid": "627abcdb627cb1789e009c08e2678ef9",
      "css": "twitter",
      "code": 59546,
      "src": "fontawesome"
    },
    {
      "uid": "676cf66256441f09e4934ae6378b3e2d",
      "css": "vine",
      "code": 59547,
      "src": "fontawesome"
    },
    {
      "uid": "f3d95e13eb43f3f6b8efe1eb424a1e3b",
      "css": "vkontakte",
      "code": 59548,
      "src": "fontawesome"
    },
    {
      "uid": "34cb6ce62bf3f1efd59e2f5eb0d79f82",
      "css": "wechat",
      "code": 59549,
      "src": "fontawesome"
    },
    {
      "uid": "9854b94688e31450fc76aae4c2a45dff",
      "css": "weibo",
      "code": 59550,
      "src": "fontawesome"
    },
    {
      "uid": "8aff323697468c4a63993cde00386ec6",
      "css": "windows",
      "code": 59551,
      "src": "fontawesome"
    },
    {
      "uid": "39f52f80e1864df5e5022d7f0f5ff86f",
      "css": "wordpress",
      "code": 59552,
      "src": "fontawesome"
    },
    {
      "uid": "11ebb30e17efcd988a228ade5d3e8c74",
      "css": "xing",
      "code": 59553,
      "src": "fontawesome"
    },
    {
      "uid": "7a48de2ac7ca47c78d6c279996ee6250",
      "css": "yelp",
      "code": 59554,
      "src": "fontawesome"
    },
    {
      "uid": "a9862b9d5197886c1ad693ecd7120b31",
      "css": "youtube",
      "code": 59555,
      "src": "fontawesome"
    },
    {
      "uid": "ba071f2b01f1fed40d8e2366434b6f42",
      "css": "yahoo",
      "code": 59556,
      "src": "fontawesome"
    },
    {
      "uid": "2c2ca8a96b31781c9c8056d05c0a8980",
      "css": "blank",
      "code": 59558,
      "src": "fontawesome"
    },
    {
      "uid": "5e0191587645a9f5d514ed4b0a0e008a",
      "css": "lemon",
      "code": 59557,
      "src": "fontawesome"
    },
    {
      "uid": "39e2e6682c28e1e3b5f49825a19717c4",
      "css": "note",
      "code": 59595,
      "src": "entypo"
    },
    {
      "uid": "fda731b5a4026685e1a9c7e64228e2b2",
      "css": "note2",
      "code": 59597,
      "src": "entypo"
    },
    {
      "uid": "bbd66ef66bb8fa9edde54d9a90b89150",
      "css": "user",
      "code": 59587,
      "src": "entypo"
    },
    {
      "uid": "ecf8edb95c3f45eb433b4cce7ba9f740",
      "css": "users",
      "code": 59586,
      "src": "entypo"
    },
    {
      "uid": "6274e0601f2feef7eced89146e708de0",
      "css": "user-add",
      "code": 59588,
      "src": "entypo"
    },
    {
      "uid": "6341ebcbe1ed1f6777c1b9527ead368e",
      "css": "video",
      "code": 59585,
      "src": "entypo"
    },
    {
      "uid": "3def559c3c39b8500882e02892b7daa8",
      "css": "pictures",
      "code": 59584,
      "src": "entypo"
    },
    {
      "uid": "85017ab6ca074831a8de771b40e9640c",
      "css": "camera",
      "code": 59583,
      "src": "entypo"
    },
    {
      "uid": "2cfb3f2b46b34a1790aec0aa846297b6",
      "css": "menu",
      "code": 59578,
      "src": "entypo"
    },
    {
      "uid": "14017aae737730faeda4a6fd8fb3a5f0",
      "css": "check",
      "code": 59563,
      "src": "entypo"
    },
    {
      "uid": "c709da589c923ba3c2ad48d9fc563e93",
      "css": "cancel",
      "code": 59564,
      "src": "entypo"
    },
    {
      "uid": "70370693ada58ef0a60fa0984fe8d52a",
      "css": "plus",
      "code": 59565,
      "src": "entypo"
    },
    {
      "uid": "1256e3054823e304d7e452a589cf8bb8",
      "css": "minus",
      "code": 59566,
      "src": "entypo"
    },
    {
      "uid": "3a230e539a4f3b904debd04c6c155034",
      "css": "help",
      "code": 59571,
      "src": "entypo"
    },
    {
      "uid": "63b86fedd4ee9ad2105f54f4888e7088",
      "css": "info",
      "code": 59572,
      "src": "entypo"
    },
    {
      "uid": "513ac180ff85bd275f2b736720cbbf5e",
      "css": "home",
      "code": 59582,
      "src": "entypo"
    },
    {
      "uid": "815503841e980c848f55e0271deacead",
      "css": "link",
      "code": 59573,
      "src": "entypo"
    },
    {
      "uid": "44b9e75612c5fad5505edd70d071651f",
      "css": "attach",
      "code": 59575,
      "src": "entypo"
    },
    {
      "uid": "25fc99a30fecc4021fdcae5fff5ba9ac",
      "css": "eye",
      "code": 59576,
      "src": "entypo"
    },
    {
      "uid": "875ab0f6d417223f6ec76ff7f0a4baed",
      "css": "tag",
      "code": 59577,
      "src": "entypo"
    },
    {
      "uid": "1d2a6c3d9236b88b0f185c7c4530fa52",
      "css": "flag",
      "code": 59615,
      "src": "entypo"
    },
    {
      "uid": "b6fc2f656ef87275889422e19550680a",
      "css": "reply",
      "code": 59394,
      "src": "entypo"
    },
    {
      "uid": "1a4b54ba5618e5364fc47a3d26c1cf59",
      "css": "reply-all",
      "code": 59395,
      "src": "entypo"
    },
    {
      "uid": "ec347024a3640deebeeab53fd0d5ad03",
      "css": "forward",
      "code": 59396,
      "src": "entypo"
    },
    {
      "uid": "c3e5dafba1739ef33cc574c7484febf7",
      "css": "quote",
      "code": 59574,
      "src": "entypo"
    },
    {
      "uid": "b6f32db98a3de777f5ae3005191b1831",
      "css": "code",
      "code": 59581,
      "src": "entypo"
    },
    {
      "uid": "c77fd2fd065b5fe16d6f2b41e190b266",
      "css": "pencil",
      "code": 59579,
      "src": "entypo"
    },
    {
      "uid": "bcb868184ff9c35f8aef564f50c0d649",
      "css": "feather",
      "code": 59580,
      "src": "entypo"
    },
    {
      "uid": "28f124a10127a47b9d9472699193d75a",
      "css": "print",
      "code": 59397,
      "src": "entypo"
    },
    {
      "uid": "216891b0093d4dbef19877d5b00d1b16",
      "css": "retweet",
      "code": 59623,
      "src": "entypo"
    },
    {
      "uid": "005a38f6af74b31aeb817fedb09d2175",
      "css": "keyboard",
      "code": 59398,
      "src": "entypo"
    },
    {
      "uid": "97902f87200ce74d181044df02a0458d",
      "css": "attention",
      "code": 59616,
      "src": "entypo"
    },
    {
      "uid": "457c8e2b305e7af74c1be4f07a01ca92",
      "css": "vcard",
      "code": 59392,
      "src": "entypo"
    },
    {
      "uid": "540b6a4262be769515c79700618b4aea",
      "css": "address",
      "code": 59444,
      "src": "entypo"
    },
    {
      "uid": "a42b598e4298f3319b25a2702a02e7ff",
      "css": "location",
      "code": 59443,
      "src": "entypo"
    },
    {
      "uid": "51727ca007aa35ceabcaffc28934faee",
      "css": "book-open",
      "code": 59419,
      "src": "entypo"
    },
    {
      "uid": "48b79f27e4798f23bafa07b55dbe5b73",
      "css": "book",
      "code": 59415,
      "src": "entypo"
    },
    {
      "uid": "5854855e963044f93b15738a5bb27a29",
      "css": "phone",
      "code": 59418,
      "src": "entypo"
    },
    {
      "uid": "6a7b9d4863bb7e6c79e9457a72d689b6",
      "css": "tools",
      "code": 59622,
      "src": "entypo"
    },
    {
      "uid": "91426c82d94428a33353e495418435e3",
      "css": "share",
      "code": 59598,
      "src": "entypo"
    },
    {
      "uid": "a204f0fa972408eaae5a363c444991b2",
      "css": "login",
      "code": 59402,
      "src": "entypo"
    },
    {
      "uid": "2d76f2c8d13be40694ecadfea7fb83c3",
      "css": "logout",
      "code": 59403,
      "src": "entypo"
    },
    {
      "uid": "8663320a860b00f26e94d3d15c9ba99a",
      "css": "clock-empty",
      "code": 59400,
      "src": "entypo"
    },
    {
      "uid": "7f6916533c0842b6cec699fd773693d3",
      "css": "hourglass",
      "code": 59401,
      "src": "entypo"
    },
    {
      "uid": "465bb89b6f204234e5787c326b4ae54c",
      "css": "ccw",
      "code": 59406,
      "src": "entypo"
    },
    {
      "uid": "bb46b15cb78cc4cc05d3d715d522ac4d",
      "css": "cw",
      "code": 59407,
      "src": "entypo"
    },
    {
      "uid": "3bd18d47a12b8709e9f4fe9ead4f7518",
      "css": "refresh",
      "code": 59408,
      "src": "entypo"
    },
    {
      "uid": "cb13afd4722a849d48056540bb74c47e",
      "css": "play",
      "code": 59617,
      "src": "entypo"
    },
    {
      "uid": "48f2e18872fe74d4579a4c8a1527fc1e",
      "css": "stop",
      "code": 59618,
      "src": "entypo"
    },
    {
      "uid": "d8d378d0ce413f231dfa37592e39c227",
      "css": "pause",
      "code": 59619,
      "src": "entypo"
    },
    {
      "uid": "e188c02f740feff7e2d2bce1950b75fa",
      "css": "record",
      "code": 59620,
      "src": "entypo"
    },
    {
      "uid": "0afbb00323696f49e9c47f4d9fe6390b",
      "css": "to-end",
      "code": 59621,
      "src": "entypo"
    },
    {
      "uid": "ceefe7653a4f6edaacce9e7f196cec5a",
      "css": "to-start",
      "code": 59624,
      "src": "entypo"
    },
    {
      "uid": "18f7c393e3532e40edd45607c9d99988",
      "css": "fast-forward",
      "code": 59625,
      "src": "entypo"
    },
    {
      "uid": "85806fd8ab907f45d34f976354a0df23",
      "css": "fast-backward",
      "code": 59626,
      "src": "entypo"
    },
    {
      "uid": "978aa8facd816df874039e139cb0cdde",
      "css": "trophy",
      "code": 59436,
      "src": "entypo"
    },
    {
      "uid": "d2c6b59d9a239140cb76be0627480855",
      "css": "dot",
      "code": 59452,
      "src": "entypo"
    },
    {
      "uid": "13b11ab72c6ae9c97ee12428e17f3a4e",
      "css": "dot2",
      "code": 59593,
      "src": "entypo"
    },
    {
      "uid": "d10920db2e79c997c5e783279291970c",
      "css": "dot3",
      "code": 59594,
      "src": "entypo"
    },
    {
      "uid": "39c4d0e225a1263a398a47523cb5b9bd",
      "css": "brush",
      "code": 59405,
      "src": "entypo"
    },
    {
      "uid": "bcdc294bb787b15203b82f2be8096548",
      "css": "star-1",
      "code": 59639,
      "src": "typicons"
    },
    {
      "uid": "86bc84e014767f8f1377723c47d1b153",
      "css": "right-outline",
      "code": 59640,
      "src": "typicons"
    },
    {
      "uid": "877a233d7fdca8a1d82615b96ed0d7a2",
      "css": "right-small",
      "code": 59651,
      "src": "typicons"
    },
    {
      "uid": "vqyhv5kmwcj9zxq28dhq5npykr2k39co",
      "css": "basket",
      "code": 59596,
      "src": "modernpics"
    },
    {
      "uid": "0ohst63cgq1mf1syayvfl8mphms8dbes",
      "css": "clock",
      "code": 59409,
      "src": "modernpics"
    },
    {
      "uid": "572c9ded6a688698dc275b30ff30fefa",
      "css": "music-light",
      "code": 59448,
      "src": "linecons"
    },
    {
      "uid": "9725db89b610135dc76cd8a21afffa83",
      "css": "search-light",
      "code": 59449,
      "src": "linecons"
    },
    {
      "uid": "91bac16b22827347e9ee20477f0b44d2",
      "css": "mail-light",
      "code": 59450,
      "src": "linecons"
    },
    {
      "uid": "b19ac67070bc44e310990016288e449c",
      "css": "heart-light",
      "code": 59451,
      "src": "linecons"
    },
    {
      "uid": "56a0672588820ab1a16363e5d07dd22e",
      "css": "user-light",
      "code": 59453,
      "src": "linecons"
    },
    {
      "uid": "f2a37db235ca1951d60d7ebc9733eb54",
      "css": "video-light",
      "code": 59454,
      "src": "linecons"
    },
    {
      "uid": "b59cc4d390a6df564a055f43c03a6af5",
      "css": "camera-light",
      "code": 59455,
      "src": "linecons"
    },
    {
      "uid": "8573943a49ed6dd8f7819070445baa46",
      "css": "photo-light",
      "code": 59456,
      "src": "linecons"
    },
    {
      "uid": "359f380b2113cb40259269aed843e33d",
      "css": "attach-light",
      "code": 59457,
      "src": "linecons"
    },
    {
      "uid": "47e9e56d2b5abe839bcf1e014d643dea",
      "css": "lock-light",
      "code": 59458,
      "src": "linecons"
    },
    {
      "uid": "a58c05a8a3ba59ababd4860a30892560",
      "css": "eye-light",
      "code": 59459,
      "src": "linecons"
    },
    {
      "uid": "930c31d4c72bd792b5dceb6de607c3e0",
      "css": "tag-light",
      "code": 59460,
      "src": "linecons"
    },
    {
      "uid": "06a2fbb04dffecdb444936073cae9123",
      "css": "thumbs-up-light",
      "code": 59461,
      "src": "linecons"
    },
    {
      "uid": "2aeb4987b469d22fcb8b471b6d2cdfff",
      "css": "pencil-light",
      "code": 59462,
      "src": "linecons"
    },
    {
      "uid": "5b1a68729f60f8be3769238379d1b8e9",
      "css": "comment-light",
      "code": 59463,
      "src": "linecons"
    },
    {
      "uid": "1ea8ad6dbe1ae9a73565ad16cf88de19",
      "css": "location-light",
      "code": 59464,
      "src": "linecons"
    },
    {
      "uid": "c2958cfd1eed4434ab6e4bd6ab337af9",
      "css": "cup-light",
      "code": 59465,
      "src": "linecons"
    },
    {
      "uid": "2cc73cc335f054682c04fe63439c4dcb",
      "css": "trash-light",
      "code": 59466,
      "src": "linecons"
    },
    {
      "uid": "f978da58836f23373882916f05fb70b4",
      "css": "doc-light",
      "code": 59467,
      "src": "linecons"
    },
    {
      "uid": "29f4bce4a60650057c5248e30baa15a6",
      "css": "note-light",
      "code": 59494,
      "src": "linecons"
    },
    {
      "uid": "484b4ad2058d17849f205c4054b6f315",
      "css": "cog-light",
      "code": 59492,
      "src": "linecons"
    },
    {
      "uid": "3e2bd88137dd7ceec98b4bfd8640e5ec",
      "css": "params-light",
      "code": 59491,
      "src": "linecons"
    },
    {
      "uid": "43e4647c57186b5e06874621b5e665be",
      "css": "calendar-light",
      "code": 59488,
      "src": "linecons"
    },
    {
      "uid": "143d93c9abdee0f4a7a2a810acc62b91",
      "css": "sound-light",
      "code": 59487,
      "src": "linecons"
    },
    {
      "uid": "ee22dc89481ea63f27654f59dcace804",
      "css": "clock-light",
      "code": 59484,
      "src": "linecons"
    },
    {
      "uid": "fb3ee9c192c946342e0cdd12f06d7774",
      "css": "lightbulb-light",
      "code": 59483,
      "src": "linecons"
    },
    {
      "uid": "cc5e3696cf6c3ad8c32daaea05355a99",
      "css": "tv-light",
      "code": 59480,
      "src": "linecons"
    },
    {
      "uid": "7697f1734d53461137f05faab3f79cf0",
      "css": "desktop-light",
      "code": 59479,
      "src": "linecons"
    },
    {
      "uid": "6a9f3405aba67bcaee81e7ea38946b27",
      "css": "mobile-light",
      "code": 59478,
      "src": "linecons"
    },
    {
      "uid": "52cde78d270e411ccf22c9ec02910d69",
      "css": "cd-light",
      "code": 59477,
      "src": "linecons"
    },
    {
      "uid": "efaf7e97e8b1aa7c2b52cc29432c96ca",
      "css": "inbox-light",
      "code": 59476,
      "src": "linecons"
    },
    {
      "uid": "1e89103762be72b0720eda0468e62b90",
      "css": "globe-light",
      "code": 59475,
      "src": "linecons"
    },
    {
      "uid": "f6eb7f8aed5dc03a323d5ef2895ae50b",
      "css": "cloud-light",
      "code": 59474,
      "src": "linecons"
    },
    {
      "uid": "6fbd93c0d220507921015a15575009e5",
      "css": "paper-plane-light",
      "code": 59473,
      "src": "linecons"
    },
    {
      "uid": "04309fefab5210bf502d278d65d134cf",
      "css": "fire-light",
      "code": 59472,
      "src": "linecons"
    },
    {
      "uid": "4b7f817f780705a5d267ad59e855da91",
      "css": "graduation-light",
      "code": 59471,
      "src": "linecons"
    },
    {
      "uid": "cdcc1a6693235d1205370c1f47d5e7ad",
      "css": "megaphone-light",
      "code": 59470,
      "src": "linecons"
    },
    {
      "uid": "02ad0683eaa9826f396fa7ccf1f1fb25",
      "css": "database-light",
      "code": 59469,
      "src": "linecons"
    },
    {
      "uid": "75347b319511175da51af3955919dbac",
      "css": "key-light",
      "code": 59468,
      "src": "linecons"
    },
    {
      "uid": "6cc796276697d8a75ae21bb2df4badc9",
      "css": "beaker-light",
      "code": 59493,
      "src": "linecons"
    },
    {
      "uid": "f5053e43ef8be31afb905801449ae26d",
      "css": "truck-light",
      "code": 59495,
      "src": "linecons"
    },
    {
      "uid": "b8e88705f42bd79580be828233c65da0",
      "css": "money-light",
      "code": 59490,
      "src": "linecons"
    },
    {
      "uid": "b08f8c33777cd6b512d9576fc6e7f405",
      "css": "food-light",
      "code": 59489,
      "src": "linecons"
    },
    {
      "uid": "5d27926667773d186de09fda4312af27",
      "css": "shop-light",
      "code": 59486,
      "src": "linecons"
    },
    {
      "uid": "f8e8b267a9b949804f0c9dd7fed8e477",
      "css": "diamond-light",
      "code": 59485,
      "src": "linecons"
    },
    {
      "uid": "862d4faacb164c0412cb3249d43d5d39",
      "css": "t-shirt-light",
      "code": 59482,
      "src": "linecons"
    },
    {
      "uid": "d58dc0a0927a7dea2992f615f2fbf400",
      "css": "wallet-light",
      "code": 59481,
      "src": "linecons"
    }
  ]
}